id,points
carl-battery,0 0.98 7.99 45.3 73.77 47.6 83.78 84.15 174.41 86.55 204.13 69.84 202.1 64.38 170.41 61.31 180.97 24.71 138.38 0 0 0.98
carl-climate-evo,101.93 0 6.63 28.52 6.63 104.88 55.26 107.84 12.47 180.24 0 278.49 0 306.67 45.13 348.16 13.32 399.61 12.47 468.06 381.85 483.92 351.49 303.77 408.79 217.51 361.38 123.43 353.17 44.19 232.35 24.49 182.78 64.44 101.93 0
carl-east-canada,1.85 0 0 79.28 243.22 83.64 243.22 4.49 1.85 0
carl-elsmere,0 1.88 0 14.08 24.14 20.44 24.34 30.31 141.91 31.43 165.19 16.66 163 1.88 0 1.88
carl-face,84.92 0 128.99 0 208.97 80.85 194.57 94.51 152.31 80.85 132.19 165.23 82.72 189.4 50.01 171.3 39.98 71.81 4.67 76.74 0 60.66 84.92 0
carl-kluane,7.38 6.64 7.38 172.57 302.69 172.57 310.62 12.2 7.38 6.64
carl-lakes,35.01 0 31.37 73.48 0 190.44 11.8 222.28 147.76 227.72 144.68 337.4 235.5 337.4 319.59 287.01 353.76 270.04 350.47 260.38 304.3 256.54 296.79 228.26 282.25 181.84 305.65 157.82 277.43 145.42 270.59 125.91 166.59 117.67 173.85 75.85 210.97 32.44 209.95 11.19 179.2 0 35.01 0
carl-manual-data,1.86 116.65 44.58 179.34 43.83 201.01 37.62 210.74 39.69 236.41 43.24 240.38 58.65 247.49 385.08 254.87 406.75 235.9 411.44 193.43 406.21 176.95 326.18 86.64 305.14 75.4 277.95 0 144.92 7.18 148.62 83.27 29.77 85.14 0 88.58 1.86 116.65
carl-map,11.87 248.08 172.53 249.13 172.53 1.61 0.51 0 2.29 248.08 11.87 248.08
carl-nordi-canada,18.81 1.04 32.98 199.67 0 219.18 20.85 343.96 400.57 370.25 366.61 231.65 329.49 217.83 325.68 198.47 370.51 153.17 364.76 109.8 322.93 117.93 327.94 71.45 269.68 12.14 215.1 48.53 135.1 1.97 18.81 1.04
carl-sila,13.47 1.12 0 110.91 199.25 111.41 195.97 4.51 13.47 1.12
carl-station,0 1.13 0.17 108.23 260.05 108.23 256.43 0.71 0 1.13
carl-stations,12.8 0 14.34 25.38 42.75 40.37 39.23 67.55 8.94 66.6 9.71 97.27 41.82 129.79 23.02 159.52 28.23 227.02 11.67 246.07 0 283.31 12.82 287.58 123.87 268.08 108.86 228.27 275.1 220.45 260 188.31 85.28 181.14 71.96 133.4 96.27 123.53 65.61 1.68 12.8 0
carl-transmit,44.28 133.27 89.06 156.19 163.76 157.98 165.95 138.64 181.69 135.11 188.48 92.75 225.38 80.67 234.85 30.76 195.96 0.06 152.07 25.74 144.38 69.49 94.59 68.5 19.41 58.7 0.11 82.47 6.88 91.45 35.83 102.95 22.71 116.57 44.28 133.27 44.28 133.27