{
    "svg": {
      "xmlns": "http://www.w3.org/2000/svg",
      "viewBox": "0 0 204.13 86.55",
      "g": {
        "id": "Layer_2",
        "data-name": "Layer 2",
        "g": {
          "id": "elements",
          "g": {
            "id": "carl-battery",
            "g": [
              {
                "id": "misc",
                "polygon": {
                  "id": "ghost_object",
                  "points": "0 0.98 7.99 45.3 73.77 47.6 83.78 84.15 174.41 86.55 204.13 69.84 202.1 64.38 170.41 61.31 180.97 24.71 138.38 0 0 0.98",
                  "fill": "none"
                },
                "path": {
                  "id": "ghost_click",
                  "d": "M.83,5.58l6.6,36.59a3.94,3.94,0,0,0,3.73,3.24L70.87,47.5a3.93,3.93,0,0,1,3.66,2.9L83,81.33a3.93,3.93,0,0,0,3.7,2.89l86.61,2.3a3.91,3.91,0,0,0,2-.5L201.2,71.49a4,4,0,0,0,1.76-4.8h0a3.91,3.91,0,0,0-3.31-2.55l-24.52-2.37a3.94,3.94,0,0,1-3.4-5l8.39-29.09a4,4,0,0,0-1.81-4.5L139.31.54a3.92,3.92,0,0,0-2-.53L4.68,1A3.94,3.94,0,0,0,.83,5.58Z",
                  "fill": "#fff"
                }
              },
              {
                "id": "icon",
                "path": [
                  {
                    "d": "M159.17,54.21a4.54,4.54,0,0,0-1.33,5.29,4.49,4.49,0,0,0,4.9,2.4,4.35,4.35,0,0,0,3.35-4.55,7.68,7.68,0,0,0-.35-1.49,4,4,0,0,1,.27-3.13l2.21-5.27c1.37-3.23,2.67-6.49,4-9.75.62-1.53,1.21-3.08,1.8-4.63a36,36,0,0,0,2-5.26c.4-1.92-1.15-3.23-2.81-1.92-2.05,1.63-3.27,4.4-4.26,6.74-3.07,7.24-5.38,14.79-8.42,22-.23.56.73.86.92.26,1.66-5.21,3.73-10.32,5.59-15.46.89-2.47,1.67-5,2.69-7.42a26.4,26.4,0,0,1,1.6-3.19c.28-.48.58-1,.9-1.42a8.08,8.08,0,0,1,.6-.81,3,3,0,0,1,.79-.77l1.8.32c.86.82-.48,3.17-.81,4-.56,1.38-1.13,2.77-1.71,4.14q-1.57,3.8-3.08,7.62c-1,2.54-2,5.09-3,7.64-.79,2-2.06,4.19-1.47,6.4a4.36,4.36,0,0,1-.7,4.06,3.63,3.63,0,0,1-3.84,1.24,3.72,3.72,0,0,1-1.27-6.56.32.32,0,1,0-.38-.5Z",
                    "fill": "#010101"
                  },
                  {
                    "d": "M161.34,57.34c-1,.36-1.89,1.66-1.09,2.67s2.19.51,2.86-.17c2-2-1.67-4.71-3.3-2.58-1.81,2.36,1.55,5.09,3.68,3.12,1.35-1.25.63-2.75.43-4.28a7.48,7.48,0,0,1,.94-3.64c.49-1.22,1-2.44,1.45-3.68,1.88-5.09,3.77-10.17,5.56-15.3.4-1.12-1.35-1.57-1.76-.48-2.14,5.6-4.23,11.24-6.19,16.91-.47,1.37-1,2.77-1.34,4.17a7.33,7.33,0,0,0,.06,3.39c.13.68.28,1.54-.44,2a.93.93,0,0,1-1.45-.81c0-.71,1.16-1.12,1.51-.33a.72.72,0,0,1-.36.85c-.48.26-1-.05-.15-.29,1-.29.52-1.84-.41-1.5Z",
                    "fill": "#cc2027"
                  },
                  {
                    "d": "M146.51,35s0,0,0,0c0-1.32,0-2.65,0-4a8.82,8.82,0,0,0-.21-3.28c-.44-1-.78-.94-1-.53a.88.88,0,0,0-.33-.49c-1.25-.81-4.18,1.76-4.87,2.41s.37,8.52,0,8.53l.32,0a6,6,0,0,0-.74,1.46c-.42,1.13,0,3.14,0,4.34,0,1,0,2,0,3.08,0,.22-.11,1.13,0,1.27.74.72.72.45,1.53-.15.54-.39,1.1-.79,1.66-1.16a18.07,18.07,0,0,1,3.64-1.85C147,44.4,146.75,35.83,146.51,35Z",
                    "fill": "#676767"
                  },
                  {
                    "d": "M137.81,41.08l-.33-1.37c.12-.17.26-.4.45-.71.59-1,.61-8.35,0-9.27-1.41-2.13-7.58.84-9.67.86-4.19,0-8.4-.82-12.75-.38-3.9.39-7.65,1.3-11.49,1.82-4.26.57-8.21-.4-12.38,1.1a26.18,26.18,0,0,0-.06,4.27h-.16s-.18,12.24,0,12.24c8-.13,15.71-1,23.7,0a35.55,35.55,0,0,0,10.9-.46c3-.48,9.12-1.26,11.79-.46v-4C138,43.07,138.06,41.46,137.81,41.08Zm-6.38-2.23c-.24-.05-.5-.08-.75-.11,1.79-.05,4.1-.07,5.64,0,0,.66-.09,1.31-.11,2C134.59,40.17,133.3,39.29,131.43,38.85Z",
                    "fill": "#b4b4b4"
                  },
                  {
                    "d": "M91.5,31.1C95.27,30,99.36,30,103.26,29.82c4.07-.22,8.14-.4,12.2-.63s8-.37,12-.51c4.16-.15,8.3-.41,12.45-.57l-.27-.36a147.61,147.61,0,0,0-1.15,22.34l.38-.38c-15.65.21-31.33.33-46.95-.61l.47.47q-.53-9.65-1.11-19.29c0-.62-1-.63-1,0,.37,6.43.73,12.87,1.13,19.29a.49.49,0,0,0,.48.48,432.54,432.54,0,0,0,46.95.42.38.38,0,0,0,.38-.38,126.62,126.62,0,0,1,1-22.27.29.29,0,0,0-.29-.28c-4.14.23-8.3.36-12.45.59s-8.29.47-12.45.62-8.3.35-12.45.51c-3.73.14-7.61,0-11.24,1a.44.44,0,0,0,.23.85Z",
                    "fill": "#010101"
                  },
                  {
                    "d": "M139.49,50.17c1.32-1.61,3.12-2.07,4.82-3.13a5.6,5.6,0,0,0,2.8-4.28,79.15,79.15,0,0,0,.42-8.15l.24-9c0-.5-.77-.5-.78,0-.17,5.44-.21,10.89-.41,16.33a6.18,6.18,0,0,1-.93,3.43,6.22,6.22,0,0,1-2.58,1.71c-1.41.68-3.15,1.35-3.93,2.81-.12.21.18.47.35.27Z",
                    "fill": "#010101"
                  },
                  {
                    "d": "M90.61,29.92a16,16,0,0,0,2.5-1.38,23.43,23.43,0,0,1,3.24-1.43,31.63,31.63,0,0,1,5.91-1.43,105.58,105.58,0,0,1,13.89-.81c10.15-.16,20.38,0,30.51.77.39,0,.39-.59,0-.6-8.2-.37-16.39-.74-24.61-.69-7.32,0-14.93-.25-22.14,1.24a29.06,29.06,0,0,0-5.25,1.56c-1.42.6-3.26,1.3-4.21,2.56-.07.1,0,.24.16.21Z",
                    "fill": "#010101"
                  },
                  {
                    "d": "M139.35,28c.61.05,1.22-.42,1.76-.65a11.75,11.75,0,0,1,1.91-.6,10.52,10.52,0,0,1,2-.24c.33,0,.67,0,1,0s.49.09.71-.09a.12.12,0,0,0,0-.15c-.17-.22-.41-.21-.67-.24A9.42,9.42,0,0,0,145,26a12.55,12.55,0,0,0-2.12.18,11.86,11.86,0,0,0-2,.57c-.57.21-1.39.46-1.65,1.06a.14.14,0,0,0,.12.21Z",
                    "fill": "#010101"
                  },
                  {
                    "d": "M102.06,26.65a.57.57,0,0,0,.26-.31,1,1,0,0,0,.12-.49c0-.3-.06-.59-.08-.89a11.77,11.77,0,0,1,0-1.78l-.27.47.14-.08h0l.08,0,.11,0q.09,0,0,0h.25a.94.94,0,0,1,.27.06l.07,0h0l.14.07.1.07s0,0,0,0l.06.06a1.14,1.14,0,0,1,.11.11s.09.12,0,0l.08.13,0,.07c0-.06,0-.07,0,0s0,.09,0,.14,0,.05,0,.07h0v.13s0,.06,0,.09h0c0,.05,0,.11,0,.17s0-.06,0,0l-.09.16,0,.07s0,0,0,0l-.1.11s-.16.13-.08.07a.41.41,0,0,1-.11.07l-.08,0h0l-.18,0c-.1,0,.09,0,0,0h-.17c.07,0,.07,0,0,0v1a2.34,2.34,0,0,0,.83-1.33,2.93,2.93,0,0,0,0-1.5.62.62,0,0,0-1.2.33s0,.1,0,.15,0,.16,0,.06,0,.05,0,.07v.15c0,.09,0,.17,0,.26,0-.15,0,0,0,0a.61.61,0,0,1,0,.13,2.17,2.17,0,0,1-.07.24v0l-.06.13c0,.08-.09.15-.13.22l0,0a1,1,0,0,0-.15.2.59.59,0,0,0,.5.88,2.31,2.31,0,0,0,1.9-.92,1.8,1.8,0,0,0,.12-2,2.13,2.13,0,0,0-1.67-1,1.83,1.83,0,0,0-1,.2.69.69,0,0,0-.3.26,1.24,1.24,0,0,0-.1.47c0,.22,0,.44-.05.67a11.9,11.9,0,0,0,0,1.46l0,.35a.82.82,0,0,0,.09.35s.16.22.11.14c.1.14.34.45.56.31Z",
                    "fill": "#010101"
                  },
                  {
                    "d": "M134.82,25.75a.4.4,0,0,0,.13-.13.91.91,0,0,0,.07-.14c-.06.05-.07.07,0,0a.5.5,0,0,0,.19-.19,1.6,1.6,0,0,0,.1-.23,2.55,2.55,0,0,0,.07-1l0-.87a6.06,6.06,0,0,0-.06-1l-.41.73.12,0h1.22c.07,0,.08,0,0,0s.22,0,.33,0L136,22.5c0,.31.06.62.06.93,0,.08,0,.15,0,.23a.41.41,0,0,0,0,.11c0,.09,0-.07,0,0a2.2,2.2,0,0,1-.12.44c0-.05,0,0,0,0a.56.56,0,0,1-.05.08l-.09.16c.05-.08,0,0-.07.07l-.13.12c.07-.06-.05,0-.08.05l-.09.06c-.06,0,.06,0,0,0l-.17,0c-.07,0,.07,0,0,0h-.11l.26,1a2.53,2.53,0,0,0,1-1.42,2.3,2.3,0,0,0-.22-1.76.56.56,0,0,0-1,.56l0,.07c0-.07,0-.07,0,0a.88.88,0,0,0,.05.15,1,1,0,0,1,.07.29c0-.08,0-.09,0,0s0,.06,0,.08v.17s0,.08,0,.13,0,.05,0,0a.28.28,0,0,1,0,.09c0,.09,0,.19-.08.28l0,.08v0a1.09,1.09,0,0,0-.08.15.86.86,0,0,1-.07.1c0,.05,0,.05,0,0l-.06.06a.63.63,0,0,1-.11.12s-.16.13-.06.06a.5.5,0,0,0-.23.57.53.53,0,0,0,.49.38,1.94,1.94,0,0,0,1.7-1.07,4.15,4.15,0,0,0,.29-2.26.57.57,0,0,0-.56-.55c-.18,0-.29,0-.43,0h-.47a6.39,6.39,0,0,1-.81-.05c-.29-.05-.69.07-.74.42a7.48,7.48,0,0,0,0,1v.87a2.77,2.77,0,0,0,.09,1,1.63,1.63,0,0,0,.11.23.5.5,0,0,0,.19.19c.05,0,0,0,0,0s.06.13.07.14a.47.47,0,0,0,.15.13.16.16,0,0,0,.15,0Z",
                    "fill": "#010101"
                  },
                  {
                    "d": "M103.81,23.08c-1.55-4.17,1-8.45,4.94-10s8.88-.58,12.44,1.76a.29.29,0,0,0,.42-.32c-.88-3.65,2.78-5.49,5.84-5.64,2.84-.14,5.66.42,8.43-.41.09,0,.05-.14,0-.13-3.73.78-7.63-.87-11.29.42-2.31.81-4.53,3.34-3.49,5.91l.41-.32a18.93,18.93,0,0,0-7-2.72,11.6,11.6,0,0,0-6.83,1.15c-3.68,2-5.86,6.45-4.07,10.42.07.16.34,0,.28-.12Z",
                    "fill": "#010101"
                  },
                  {
                    "d": "M134.49,22a10.51,10.51,0,0,1-1.5-6.91,8.81,8.81,0,0,1,1.22-3.52c.36-.56,1-1.4,1.72-1.47.37,0,1.22.14,1.44.51l0,.83-.43-.42a6.7,6.7,0,0,1-2-3.37,3.32,3.32,0,0,1,2-3.94,2.5,2.5,0,0,1,3.23,2.47,5,5,0,0,1-.63,2.41l-.19.38c-.17.67-.57.9-1.2.68-.74,0-.75,0-1.14-.45l0,.31c3.34-2.15,7,.83,8.87,3.51s3.51,5.75,5.24,8.62,3.59,5.68,5.16,8.64a11.5,11.5,0,0,1,1.39,4.85,5.36,5.36,0,0,1-1.86,4.27c-.35.32.18.85.52.52,2.11-2.05,2.28-5.73,1.27-8.34a24.37,24.37,0,0,0-2.74-5c-1.24-1.82-2.37-3.72-3.56-5.57s-2.41-3.7-3.6-5.55a25.68,25.68,0,0,0-3.12-4.27c-2.07-2.13-4.92-3.34-7.77-2a.19.19,0,0,0-.07.27,1.56,1.56,0,0,0,1.73.82c.46-.14.38-.22.64-.71s.66-1.1.91-1.69c.68-1.68.5-4.17-1.56-4.75s-3.84,1.15-4.11,3.08a6.08,6.08,0,0,0,3.12,5.74.13.13,0,0,0,.18,0,1.65,1.65,0,0,0-1.11-2.32c-1.54-.32-2.72,1.31-3.33,2.48a9.31,9.31,0,0,0,1.08,10.12c.1.12.28,0,.21-.16Z",
                    "fill": "#010101"
                  },
                  {
                    "d": "M99.32,32.29s-.12,0-.16,0a.33.33,0,0,0-.15.11.78.78,0,0,0-.11.2,3.76,3.76,0,0,0-.2.46,4.28,4.28,0,0,0-.25,1,4.51,4.51,0,0,0,0,1,1.12,1.12,0,0,0,.34.88.15.15,0,0,0,.2-.06.55.55,0,0,0,.06-.4c0-.15,0-.3,0-.45a3.88,3.88,0,0,1,.25-1.68c0-.14.11-.27.17-.4a1.06,1.06,0,0,0,.11-.21.43.43,0,0,0,0-.16.78.78,0,0,1,0-.14c0-.09-.09-.15-.16-.09Z",
                    "fill": "#010101"
                  },
                  {
                    "d": "M97.5,34.08c.87,0,1.75,0,2.62-.1l1.32-.1c.41,0,.8-.1,1.21-.14a.18.18,0,0,0,0-.36c-.22,0-.44-.05-.66-.06h-1.92c-.85,0-1.71,0-2.57.05-.47,0-.47.75,0,.73Z",
                    "fill": "#010101"
                  },
                  {
                    "d": "M128.6,33a1.21,1.21,0,0,0,.73,0l.65-.11a11.18,11.18,0,0,1,1.29-.09,17.11,17.11,0,0,1,2.68.08.28.28,0,0,0,.15-.53,8.1,8.1,0,0,0-2.83-.6,11.33,11.33,0,0,0-1.43.11c-.44.06-1.12.08-1.43.45a.44.44,0,0,0,.19.71Z",
                    "fill": "#010101"
                  }
                ]
              },
              {
                "id": "text",
                "path": [
                  {
                    "d": "M10.85,6.23q0-.69-.36-.84a2.24,2.24,0,0,0-.88-.15,4.5,4.5,0,0,0-2,.43c-.59.29-.89.63-.89,1a1,1,0,0,0,.4.75,5.39,5.39,0,0,0,1.72.71,6.29,6.29,0,0,1,1.83.77,1.15,1.15,0,0,1,.54,1,1.73,1.73,0,0,1-.76,1.21,5.05,5.05,0,0,1-1.83,1,6.34,6.34,0,0,1-1.81.34,2.32,2.32,0,0,1-1-.15c-.22-.1-.32-.22-.32-.37a1.08,1.08,0,0,1,.09-.38c.07-.15.13-.22.2-.22l.21,0a3.05,3.05,0,0,0,1.09.21A4.5,4.5,0,0,0,9.21,11c.73-.38,1.09-.74,1.09-1.07,0-.14-.11-.27-.33-.4A10.37,10.37,0,0,0,8.29,8.9a4.51,4.51,0,0,1-2.06-1A1.68,1.68,0,0,1,5.84,6.8,2,2,0,0,1,7.07,5.07a5.55,5.55,0,0,1,2.58-.65,2.62,2.62,0,0,1,1.38.3.83.83,0,0,1,.47.67,1.91,1.91,0,0,1-.1.51A.52.52,0,0,1,10.85,6.23Z",
                    "fill": "#010101"
                  },
                  {
                    "d": "M14.82,6.78c.35,0,.69-.06,1-.09a6.28,6.28,0,0,1,.78-.06,1,1,0,0,1,.49.08.27.27,0,0,1,.1.25c0,.28-.19.43-.58.45s-1,.08-1.38.13a2.15,2.15,0,0,0-.67.14,7.66,7.66,0,0,0-.32,1.23A9.79,9.79,0,0,0,14,10.43a1.33,1.33,0,0,0,.15.76.55.55,0,0,0,.45.18,2.3,2.3,0,0,0,1.23-.66.89.89,0,0,1,.47-.28c.15,0,.22.08.22.24s-.24.57-.71,1a2.27,2.27,0,0,1-1.46.59c-.84,0-1.25-.49-1.25-1.47a7.62,7.62,0,0,1,.26-1.64,11.22,11.22,0,0,0,.25-1.33s0-.08-.13-.08l-.53,0c-.44,0-.66-.18-.66-.53a.27.27,0,0,1,.3-.3h1.06a.25.25,0,0,0,.2-.1,2.79,2.79,0,0,0,.24-.65c.1-.38.2-.74.28-1.11s.25-.54.49-.54a.42.42,0,0,1,.34.15.52.52,0,0,1,.13.29s-.07.3-.19.74Z",
                    "fill": "#010101"
                  },
                  {
                    "d": "M21.15,10.11a6.15,6.15,0,0,1-1.43,1.45,2.3,2.3,0,0,1-1.29.49.86.86,0,0,1-.69-.34,1.28,1.28,0,0,1-.29-.86,4.94,4.94,0,0,1,1.21-2.92,3.28,3.28,0,0,1,2.41-1.57.7.7,0,0,1,.65.5.22.22,0,0,0,.21.17c.27,0,.41.1.41.32a3,3,0,0,1-.05.43A13.5,13.5,0,0,0,22,9.93c0,.83.16,1.33.48,1.49a.37.37,0,0,1,.22.31c0,.11-.07.21-.22.32a.72.72,0,0,1-.43.16c-.26,0-.48-.18-.65-.54A3.82,3.82,0,0,1,21.15,10.11Zm-.32-2.9c-.45,0-1,.42-1.58,1.27a4,4,0,0,0-.9,2.12c0,.39.13.59.39.59s.9-.38,1.57-1.14a3.38,3.38,0,0,0,1-2.11C21.32,7.45,21.16,7.21,20.83,7.21Z",
                    "fill": "#010101"
                  },
                  {
                    "d": "M26,6.78c.35,0,.69-.06,1-.09a6.28,6.28,0,0,1,.78-.06,1,1,0,0,1,.49.08.27.27,0,0,1,.1.25c0,.28-.19.43-.58.45s-1,.08-1.38.13a2.15,2.15,0,0,0-.67.14,7.66,7.66,0,0,0-.32,1.23,9.79,9.79,0,0,0-.26,1.52,1.33,1.33,0,0,0,.15.76.55.55,0,0,0,.45.18A2.27,2.27,0,0,0,27,10.71a.89.89,0,0,1,.47-.28c.15,0,.22.08.22.24s-.24.57-.71,1a2.27,2.27,0,0,1-1.46.59c-.84,0-1.25-.49-1.25-1.47a7.62,7.62,0,0,1,.26-1.64,11.22,11.22,0,0,0,.25-1.33s0-.08-.13-.08l-.53,0c-.44,0-.66-.18-.66-.53a.27.27,0,0,1,.3-.3h1.06a.25.25,0,0,0,.2-.1,2.79,2.79,0,0,0,.24-.65c.1-.38.2-.74.28-1.11s.25-.54.49-.54a.42.42,0,0,1,.34.15.52.52,0,0,1,.13.29s-.07.3-.19.74Z",
                    "fill": "#010101"
                  },
                  {
                    "d": "M29.81,10.84a3.65,3.65,0,0,0,.11.88,1.37,1.37,0,0,1,0,.16c0,.06-.06.14-.17.24a.56.56,0,0,1-.36.15c-.34,0-.5-.31-.5-.92a17.89,17.89,0,0,1,.39-3,6.83,6.83,0,0,0,.13-.89,1.18,1.18,0,0,1,.12-.55.37.37,0,0,1,.34-.23.59.59,0,0,1,.41.13.35.35,0,0,1,.15.28,1.4,1.4,0,0,1-.07.4,18.42,18.42,0,0,0-.48,1.95A9.49,9.49,0,0,0,29.81,10.84Zm.67-5.76c-.07,0-.12-.08-.16-.23a.64.64,0,0,0-.06-.16,1.61,1.61,0,0,1-.14-.58.56.56,0,0,1,.25-.42.76.76,0,0,1,.54-.22.67.67,0,0,1,.34.12c.12.08.18.15.18.22a2.34,2.34,0,0,1-.12.58.89.89,0,0,1-.41.55A1.07,1.07,0,0,1,30.48,5.08Z",
                    "fill": "#010101"
                  },
                  {
                    "d": "M33.38,12.24a1.44,1.44,0,0,1-1.16-.53,2,2,0,0,1-.46-1.33,4.61,4.61,0,0,1,.89-2.62A2.58,2.58,0,0,1,34.8,6.47a1.63,1.63,0,0,1,1.33.63,2.31,2.31,0,0,1,.52,1.51,3.62,3.62,0,0,1-1.06,2.49A3,3,0,0,1,33.38,12.24Zm-.71-2a1.47,1.47,0,0,0,.22.85.66.66,0,0,0,.58.33A2.17,2.17,0,0,0,35,10.59a2.75,2.75,0,0,0,.77-1.88,1.74,1.74,0,0,0-.29-1,1,1,0,0,0-.8-.39,1.69,1.69,0,0,0-1.43,1A3.81,3.81,0,0,0,32.67,10.25Z",
                    "fill": "#010101"
                  },
                  {
                    "d": "M41.36,8a.86.86,0,0,0-.58.35,8.68,8.68,0,0,0-1,1.58,10,10,0,0,1-1.11,1.86.69.69,0,0,1-.41.23.53.53,0,0,1-.61-.59,4.79,4.79,0,0,1,.08-.7A18.24,18.24,0,0,0,38,7.46.79.79,0,0,1,38.21,7c.11-.16.22-.24.32-.24a.42.42,0,0,1,.38.16,1.25,1.25,0,0,1,.12.67,15.59,15.59,0,0,1-.31,2.14,5.3,5.3,0,0,0-.11.69c0,.05,0,.08,0,.08a6,6,0,0,0,.72-1.24A8.26,8.26,0,0,1,40.5,7.53,1.45,1.45,0,0,1,41.57,7a.87.87,0,0,1,.75.42A3.67,3.67,0,0,1,42.75,9,8.48,8.48,0,0,0,43,10.57c.08.21.2.31.37.31a.93.93,0,0,0,.4-.11l.06,0c.15,0,.22.09.22.26a.69.69,0,0,1-.3.48,1.1,1.1,0,0,1-.73.25.77.77,0,0,1-.68-.34A5,5,0,0,1,42,9.54C41.87,8.53,41.67,8,41.36,8Z",
                    "fill": "#010101"
                  },
                  {
                    "d": "M56.62,5.91c-.34.37-.87,1-1.58,2a17.74,17.74,0,0,1-1.5,1.88,1.23,1.23,0,0,1-.71.41c-.14,0-.28-.1-.42-.31a7.91,7.91,0,0,1-.52-1.29,20.48,20.48,0,0,0-.83-2.26c0,.12-.08.31-.14.57-.11.56-.25,1.24-.43,2a30.63,30.63,0,0,0-.61,3,.33.33,0,0,1-.17.2.38.38,0,0,1-.59-.07.57.57,0,0,1-.16-.36,7.36,7.36,0,0,1,.3-1.59l.45-1.69c.27-1.06.44-1.85.51-2.35A11.07,11.07,0,0,0,50.32,5c0-.3.23-.45.7-.45.1,0,.21.09.32.26a1.63,1.63,0,0,1,.21.46l.16.44.69,1.93A12,12,0,0,0,52.91,9q.09.15.15.15a10.14,10.14,0,0,0,1.87-2.26,10.36,10.36,0,0,1,2-2.45.8.8,0,0,1,.45.16c.17.11.25.2.25.28s-.09.79-.3,2.27c-.07.54-.13,1.2-.2,2s-.09,1.19-.09,1.29a2.29,2.29,0,0,0,.09.59,1.59,1.59,0,0,1,.09.46,1.93,1.93,0,0,1-.06.4c0,.18-.1.29-.22.32a1.1,1.1,0,0,1-.28,0q-.54,0-.54-.9c0-.55.12-1.9.36-4a2.62,2.62,0,0,0,0-.32s0-.14.07-.34a2.64,2.64,0,0,0,0-.44A.88.88,0,0,0,56.62,5.91Z",
                    "fill": "#010101"
                  },
                  {
                    "d": "M63.49,10.24c0,.35-.31.77-.93,1.27a3.07,3.07,0,0,1-1.92.74,1.65,1.65,0,0,1-1.29-.49,2,2,0,0,1-.45-1.37,4.55,4.55,0,0,1,1-2.8,2.76,2.76,0,0,1,2.17-1.33.84.84,0,0,1,.88.86,2.08,2.08,0,0,1-.78,1.52,10.25,10.25,0,0,1-2.08,1.43.41.41,0,0,0-.27.36.92.92,0,0,0,.25.68.93.93,0,0,0,.73.26,3.24,3.24,0,0,0,2.26-1.22c.12-.12.2-.17.26-.17S63.49,10.06,63.49,10.24ZM59.9,9.43c1.46-.86,2.19-1.56,2.19-2.08,0-.21-.09-.31-.28-.31a1.59,1.59,0,0,0-1.07.69A4,4,0,0,0,59.9,9.43Z",
                    "fill": "#010101"
                  },
                  {
                    "d": "M66.66,6.78c.36,0,.69-.06,1-.09a6.28,6.28,0,0,1,.78-.06,1,1,0,0,1,.49.08A.27.27,0,0,1,69,7c0,.28-.2.43-.59.45s-1,.08-1.37.13a2.26,2.26,0,0,0-.68.14,7.15,7.15,0,0,0-.31,1.23,9.06,9.06,0,0,0-.27,1.52,1.33,1.33,0,0,0,.15.76.55.55,0,0,0,.45.18,2.24,2.24,0,0,0,1.23-.66c.21-.18.36-.28.47-.28a.21.21,0,0,1,.23.24q0,.38-.72,1a2.25,2.25,0,0,1-1.46.59c-.83,0-1.25-.49-1.25-1.47a8.33,8.33,0,0,1,.26-1.64,9.32,9.32,0,0,0,.25-1.33s0-.08-.12-.08l-.54,0c-.44,0-.66-.18-.66-.53a.27.27,0,0,1,.3-.3h1.07a.24.24,0,0,0,.19-.1,2.79,2.79,0,0,0,.24-.65c.11-.38.2-.74.28-1.11s.25-.54.49-.54a.44.44,0,0,1,.35.15.5.5,0,0,1,.12.29A5.64,5.64,0,0,1,67,5.7Z",
                    "fill": "#010101"
                  },
                  {
                    "d": "M73,10.11a6.15,6.15,0,0,1-1.43,1.45,2.3,2.3,0,0,1-1.29.49.87.87,0,0,1-.69-.34,1.28,1.28,0,0,1-.29-.86,4.89,4.89,0,0,1,1.22-2.92,3.27,3.27,0,0,1,2.4-1.57.7.7,0,0,1,.65.5.22.22,0,0,0,.21.17c.28,0,.41.1.41.32a2,2,0,0,1-.05.43,14.82,14.82,0,0,0-.28,2.15c0,.83.16,1.33.48,1.49a.37.37,0,0,1,.22.31c0,.11-.07.21-.22.32a.7.7,0,0,1-.43.16c-.26,0-.48-.18-.65-.54A3.82,3.82,0,0,1,73,10.11Zm-.31-2.9c-.46,0-1,.42-1.59,1.27a4,4,0,0,0-.9,2.12c0,.39.13.59.39.59s.91-.38,1.58-1.14a3.36,3.36,0,0,0,1-2.11C73.16,7.45,73,7.21,72.68,7.21Z",
                    "fill": "#010101"
                  },
                  {
                    "d": "M79.41,9.85A6.52,6.52,0,0,1,78,11.56a2.41,2.41,0,0,1-1.42.6,1,1,0,0,1-.8-.38,1.7,1.7,0,0,1-.29-1A4.36,4.36,0,0,1,76.5,8.08a2.94,2.94,0,0,1,2.29-1.37,1.38,1.38,0,0,1,1,.45l.73-3.37a.65.65,0,0,1,.28-.46.74.74,0,0,1,.33-.12c.24,0,.36.21.36.64a5.31,5.31,0,0,1-.24.84,24.31,24.31,0,0,0-.71,2.79,13.62,13.62,0,0,0-.34,2.66c0,.68.15,1,.45,1a1.23,1.23,0,0,0,.6-.19.36.36,0,0,1,.24-.1c.11,0,.17.08.17.22s-.16.38-.47.61a1.53,1.53,0,0,1-.94.34c-.57,0-.85-.54-.85-1.64C79.39,10.23,79.4,10,79.41,9.85Zm-.67-2.41a2.22,2.22,0,0,0-1.66,1.13,3.61,3.61,0,0,0-.82,2.09c0,.43.14.65.43.65a1.76,1.76,0,0,0,1-.43,5.29,5.29,0,0,0,1.18-1.35,2.92,2.92,0,0,0,.61-1.39.71.71,0,0,0-.21-.46A.65.65,0,0,0,78.74,7.44Z",
                    "fill": "#010101"
                  },
                  {
                    "d": "M86.17,10.11a6.13,6.13,0,0,1-1.42,1.45,2.32,2.32,0,0,1-1.3.49.86.86,0,0,1-.68-.34,1.23,1.23,0,0,1-.29-.86,4.87,4.87,0,0,1,1.21-2.92A3.28,3.28,0,0,1,86.1,6.36a.69.69,0,0,1,.64.5c.05.11.12.17.21.17.28,0,.42.1.42.32a2.16,2.16,0,0,1-.06.43A14.41,14.41,0,0,0,87,9.93c0,.83.15,1.33.47,1.49.15.09.23.19.23.31s-.08.21-.22.32a.72.72,0,0,1-.43.16q-.41,0-.66-.54A3.82,3.82,0,0,1,86.17,10.11Zm-.31-2.9c-.45,0-1,.42-1.58,1.27a4,4,0,0,0-.91,2.12c0,.39.13.59.4.59s.9-.38,1.57-1.14a3.36,3.36,0,0,0,1-2.11C86.34,7.45,86.18,7.21,85.86,7.21Z",
                    "fill": "#010101"
                  },
                  {
                    "d": "M91,6.78c.35,0,.68-.06,1-.09a6.14,6.14,0,0,1,.77-.06,1,1,0,0,1,.5.08.29.29,0,0,1,.1.25c0,.28-.2.43-.58.45s-1,.08-1.38.13a2.26,2.26,0,0,0-.68.14,8.51,8.51,0,0,0-.31,1.23,8.65,8.65,0,0,0-.26,1.52,1.33,1.33,0,0,0,.15.76.52.52,0,0,0,.44.18A2.29,2.29,0,0,0,92,10.71a.89.89,0,0,1,.47-.28c.14,0,.22.08.22.24s-.24.57-.72,1a2.23,2.23,0,0,1-1.46.59c-.83,0-1.25-.49-1.25-1.47a8.33,8.33,0,0,1,.26-1.64,9.32,9.32,0,0,0,.25-1.33s0-.08-.12-.08l-.54,0c-.44,0-.66-.18-.66-.53,0-.2.1-.3.31-.3h1.06a.23.23,0,0,0,.19-.1,2.06,2.06,0,0,0,.24-.65c.11-.38.2-.74.29-1.11s.24-.54.48-.54a.43.43,0,0,1,.35.15.5.5,0,0,1,.12.29,6.65,6.65,0,0,1-.18.74Z",
                    "fill": "#010101"
                  },
                  {
                    "d": "M97.32,10.11a6.13,6.13,0,0,1-1.42,1.45,2.32,2.32,0,0,1-1.3.49.86.86,0,0,1-.68-.34,1.23,1.23,0,0,1-.29-.86,4.87,4.87,0,0,1,1.21-2.92,3.28,3.28,0,0,1,2.41-1.57.69.69,0,0,1,.64.5c0,.11.12.17.21.17.28,0,.42.1.42.32a2.16,2.16,0,0,1-.06.43,14.41,14.41,0,0,0-.27,2.15c0,.83.15,1.33.47,1.49.15.09.23.19.23.31s-.08.21-.22.32a.72.72,0,0,1-.43.16q-.4,0-.66-.54A3.82,3.82,0,0,1,97.32,10.11ZM97,7.21c-.45,0-1,.42-1.58,1.27a4,4,0,0,0-.91,2.12c0,.39.13.59.4.59s.9-.38,1.57-1.14a3.36,3.36,0,0,0,1-2.11C97.49,7.45,97.33,7.21,97,7.21Z",
                    "fill": "#010101"
                  },
                  {
                    "d": "M7.35,23.52a4.23,4.23,0,0,0,.1.88.44.44,0,0,1,0,.15.35.35,0,0,1-.17.24.53.53,0,0,1-.36.15c-.33,0-.5-.31-.5-.92a18.13,18.13,0,0,1,.39-3A7.74,7.74,0,0,0,7,20.14a1.22,1.22,0,0,1,.12-.56.36.36,0,0,1,.33-.22.66.66,0,0,1,.42.12.38.38,0,0,1,.15.28,1.51,1.51,0,0,1-.07.41,18.42,18.42,0,0,0-.48,1.95A9.4,9.4,0,0,0,7.35,23.52ZM8,17.76c-.07,0-.13-.08-.16-.24a1.38,1.38,0,0,1-.06-.16,1.57,1.57,0,0,1-.14-.58.58.58,0,0,1,.24-.42.84.84,0,0,1,.55-.21.68.68,0,0,1,.33.11c.13.08.19.15.19.23a2.21,2.21,0,0,1-.13.58.8.8,0,0,1-.4.54A1,1,0,0,1,8,17.76Z",
                    "fill": "#010101"
                  },
                  {
                    "d": "M12.93,20.7a.84.84,0,0,0-.59.35,9.31,9.31,0,0,0-1,1.57,11.19,11.19,0,0,1-1.1,1.87.71.71,0,0,1-.42.22c-.4,0-.61-.19-.61-.58a4,4,0,0,1,.09-.71,19.08,19.08,0,0,0,.28-3.28.74.74,0,0,1,.17-.44c.11-.16.21-.24.31-.24a.45.45,0,0,1,.39.17,1.37,1.37,0,0,1,.11.66,14.17,14.17,0,0,1-.31,2.15,4.59,4.59,0,0,0-.1.68c0,.05,0,.08,0,.08A5.86,5.86,0,0,0,10.93,22a8,8,0,0,1,1.13-1.76,1.43,1.43,0,0,1,1.07-.51.9.9,0,0,1,.76.42,3.75,3.75,0,0,1,.42,1.54,10.73,10.73,0,0,0,.26,1.59c.08.2.2.31.37.31a1.05,1.05,0,0,0,.4-.11l.07,0c.14,0,.22.09.22.26a.67.67,0,0,1-.31.48,1.09,1.09,0,0,1-.73.26.79.79,0,0,1-.68-.35,5.14,5.14,0,0,1-.38-1.86C13.44,21.2,13.24,20.7,12.93,20.7Z",
                    "fill": "#010101"
                  },
                  {
                    "d": "M17.82,25a1.52,1.52,0,0,1-1.18-.45,1.72,1.72,0,0,1-.42-1.24,5,5,0,0,1,1.07-2.84c.71-1,1.37-1.49,2-1.49a.86.86,0,0,1,.72.45,1.71,1.71,0,0,1,.31,1,1,1,0,0,1-.14.52c-.08.14-.17.22-.26.22s-.34-.2-.42-.61-.23-.65-.41-.65c-.35,0-.78.43-1.27,1.28a4.62,4.62,0,0,0-.73,2.15c0,.58.33.88,1,.88a3.27,3.27,0,0,0,1.78-.72,1.23,1.23,0,0,1,.53-.25c.12,0,.18.07.18.2s-.31.59-.92,1A3.34,3.34,0,0,1,17.82,25Z",
                    "fill": "#010101"
                  },
                  {
                    "d": "M23.58,15.93c.24,0,.37.16.37.48a10.54,10.54,0,0,1-.45,2,14.5,14.5,0,0,0-.44,2.2,16.92,16.92,0,0,0-.16,1.9A13.7,13.7,0,0,0,23,24.21a1.11,1.11,0,0,1,0,.23.6.6,0,0,1-.17.44.5.5,0,0,1-.37.19c-.18,0-.31-.11-.38-.34a4.06,4.06,0,0,1-.11-1.1,27.17,27.17,0,0,1,.42-4.28,13.42,13.42,0,0,1,.66-3C23.24,16.07,23.41,15.93,23.58,15.93Z",
                    "fill": "#010101"
                  },
                  {
                    "d": "M28.43,22.42a7.25,7.25,0,0,1-1.35,1.72,2,2,0,0,1-1.28.6,1,1,0,0,1-.69-.39,1.79,1.79,0,0,1-.36-1.23,9,9,0,0,1,.33-2,7.55,7.55,0,0,0,.27-1.54.51.51,0,0,1,.47-.31.42.42,0,0,1,.34.15.49.49,0,0,1,.13.32,3.16,3.16,0,0,1-.25,1A6.55,6.55,0,0,0,25.56,23c0,.57.13.85.39.85s.76-.29,1.28-.85a7.08,7.08,0,0,0,1.32-2.38,3.86,3.86,0,0,1,.36-.79.43.43,0,0,1,.37-.18c.23,0,.35.15.35.46a3.08,3.08,0,0,1-.1.38,7.89,7.89,0,0,0-.31,2.13,2.2,2.2,0,0,0,.39,1.57.49.49,0,0,1,.21.31c0,.09-.07.18-.21.26a.76.76,0,0,1-.38.12c-.24,0-.43-.18-.58-.54a4.28,4.28,0,0,1-.22-1.58v-.34Z",
                    "fill": "#010101"
                  },
                  {
                    "d": "M34.93,22.53a6.52,6.52,0,0,1-1.46,1.71,2.41,2.41,0,0,1-1.43.6.94.94,0,0,1-.79-.39,1.65,1.65,0,0,1-.29-1A4.41,4.41,0,0,1,32,20.75a3,3,0,0,1,2.29-1.37,1.35,1.35,0,0,1,1,.46L36,16.47a.67.67,0,0,1,.28-.47.74.74,0,0,1,.33-.12c.24,0,.36.22.36.64a5.27,5.27,0,0,1-.24.85,23.79,23.79,0,0,0-.71,2.79,13.53,13.53,0,0,0-.34,2.65c0,.69.15,1,.45,1a1.14,1.14,0,0,0,.6-.19.4.4,0,0,1,.24-.09c.11,0,.17.07.17.22s-.16.37-.47.6a1.55,1.55,0,0,1-.94.35c-.57,0-.85-.55-.85-1.64A5.24,5.24,0,0,1,34.93,22.53Zm-.67-2.42a2.22,2.22,0,0,0-1.66,1.13,3.67,3.67,0,0,0-.82,2.1c0,.43.14.64.43.64a1.8,1.8,0,0,0,1-.42,5.29,5.29,0,0,0,1.18-1.35A3,3,0,0,0,35,20.82a.73.73,0,0,0-.21-.47A.65.65,0,0,0,34.26,20.11Z",
                    "fill": "#010101"
                  },
                  {
                    "d": "M42.63,22.91c0,.35-.31.78-.93,1.27a3,3,0,0,1-1.92.74,1.67,1.67,0,0,1-1.28-.48,2,2,0,0,1-.45-1.37,4.63,4.63,0,0,1,1-2.81,2.8,2.8,0,0,1,2.18-1.33.86.86,0,0,1,.63.25.88.88,0,0,1,.25.61,2.08,2.08,0,0,1-.78,1.52,9.59,9.59,0,0,1-2.09,1.43.43.43,0,0,0-.26.36,1,1,0,0,0,.24.69,1,1,0,0,0,.74.26,3.22,3.22,0,0,0,2.26-1.23c.11-.11.2-.17.26-.17S42.63,22.74,42.63,22.91Zm-3.58-.8c1.46-.87,2.19-1.56,2.19-2.09,0-.21-.1-.31-.28-.31a1.55,1.55,0,0,0-1.07.7A3.94,3.94,0,0,0,39.05,22.11Z",
                    "fill": "#010101"
                  },
                  {
                    "d": "M46.31,23.48c0-.22-.28-.48-.83-.76a8.4,8.4,0,0,1-1.42-.86,1,1,0,0,1-.36-.72,2,2,0,0,1,1-1.7,3.39,3.39,0,0,1,1.68-.68,1,1,0,0,1,.61.15.6.6,0,0,1,.19.5.36.36,0,0,1-.14.27.35.35,0,0,1-.21.11.73.73,0,0,1-.23-.07.72.72,0,0,0-.21-.08,3.42,3.42,0,0,0-1,.38c-.52.25-.79.53-.79.85a.66.66,0,0,0,.28.52,5.08,5.08,0,0,0,1,.58,3.65,3.65,0,0,1,.93.6,1,1,0,0,1,.35.74c0,.53-.36.94-1.09,1.24A5.59,5.59,0,0,1,44,25c-.55,0-.83-.19-.83-.57a.29.29,0,0,1,.19-.28.75.75,0,0,1,.38-.1l.29.05a1.27,1.27,0,0,0,.28.06A4.37,4.37,0,0,0,45.5,24,1.32,1.32,0,0,0,46.31,23.48Z",
                    "fill": "#010101"
                  },
                  {
                    "d": "M54.52,19.46l1-.1c.31,0,.56-.05.77-.05a1.06,1.06,0,0,1,.5.07.31.31,0,0,1,.1.25c0,.28-.2.43-.58.46s-1,.07-1.38.13a2.47,2.47,0,0,0-.68.13,9.56,9.56,0,0,0-.31,1.23,8.65,8.65,0,0,0-.26,1.52,1.44,1.44,0,0,0,.14.76.53.53,0,0,0,.45.19,2.26,2.26,0,0,0,1.24-.67.86.86,0,0,1,.47-.27c.14,0,.22.08.22.24s-.24.56-.72,1A2.28,2.28,0,0,1,54,24.9c-.83,0-1.25-.49-1.25-1.47A8.4,8.4,0,0,1,53,21.78a9.32,9.32,0,0,0,.25-1.33c0-.05,0-.07-.12-.07l-.54,0c-.44,0-.66-.17-.66-.52,0-.2.1-.3.31-.3h1.06a.26.26,0,0,0,.19-.1,2.29,2.29,0,0,0,.24-.66c.11-.37.2-.74.29-1.1s.24-.55.48-.55a.45.45,0,0,1,.35.16.48.48,0,0,1,.12.29,6.8,6.8,0,0,1-.18.73Z",
                    "fill": "#010101"
                  },
                  {
                    "d": "M61.78,22.91c0,.35-.31.78-.93,1.27a3,3,0,0,1-1.92.74,1.67,1.67,0,0,1-1.28-.48,2,2,0,0,1-.45-1.37,4.63,4.63,0,0,1,1-2.81,2.8,2.8,0,0,1,2.18-1.33.86.86,0,0,1,.63.25.88.88,0,0,1,.25.61,2.08,2.08,0,0,1-.78,1.52,9.59,9.59,0,0,1-2.09,1.43.43.43,0,0,0-.26.36,1,1,0,0,0,.24.69,1,1,0,0,0,.74.26,3.22,3.22,0,0,0,2.26-1.23c.11-.11.2-.17.26-.17S61.78,22.74,61.78,22.91Zm-3.58-.8c1.46-.87,2.19-1.56,2.19-2.09,0-.21-.1-.31-.28-.31a1.55,1.55,0,0,0-1.07.7A3.94,3.94,0,0,0,58.2,22.11Z",
                    "fill": "#010101"
                  },
                  {
                    "d": "M64.27,25a1.54,1.54,0,0,1-1.19-.45,1.72,1.72,0,0,1-.42-1.24,5,5,0,0,1,1.07-2.84c.71-1,1.38-1.49,2-1.49a.86.86,0,0,1,.72.45,1.7,1.7,0,0,1,.3,1,1.08,1.08,0,0,1-.13.52c-.09.14-.18.22-.27.22s-.34-.2-.42-.61-.23-.65-.4-.65c-.36,0-.78.43-1.27,1.28a4.51,4.51,0,0,0-.73,2.15c0,.58.33.88,1,.88a3.3,3.3,0,0,0,1.79-.72,1.18,1.18,0,0,1,.53-.25c.11,0,.17.07.17.2s-.31.59-.92,1A3.33,3.33,0,0,1,64.27,25Z",
                    "fill": "#010101"
                  },
                  {
                    "d": "M69.06,23.11q1.92-3.54,3.16-3.54a.62.62,0,0,1,.54.38,5.13,5.13,0,0,1,.33,1.67,4,4,0,0,0,.59,2,1,1,0,0,1,.23.46.3.3,0,0,1-.16.25.52.52,0,0,1-.33.12.88.88,0,0,1-.71-.46,3.4,3.4,0,0,1-.4-1.58A8.59,8.59,0,0,0,72.13,21c-.07-.21-.18-.33-.33-.33-.36,0-1.08.95-2.18,2.84a7.63,7.63,0,0,1-.72,1.1.62.62,0,0,1-.42.26.55.55,0,0,1-.38-.13.41.41,0,0,1-.16-.33,4.17,4.17,0,0,1,.08-.56q.65-3.27,1-6.48a2.34,2.34,0,0,1,.27-1c.12-.17.22-.25.31-.25a.57.57,0,0,1,.4.18.68.68,0,0,1,.18.5,10.46,10.46,0,0,1-.47,2.61c-.15.54-.31,1.24-.47,2.08A12.06,12.06,0,0,0,69,23.05a.05.05,0,0,0,.06.06Z",
                    "fill": "#010101"
                  },
                  {
                    "d": "M78.34,20.7a.84.84,0,0,0-.59.35,8.83,8.83,0,0,0-1,1.57,10.22,10.22,0,0,1-1.11,1.87.71.71,0,0,1-.42.22c-.4,0-.6-.19-.6-.58a3.79,3.79,0,0,1,.08-.71A18.13,18.13,0,0,0,75,20.14a.82.82,0,0,1,.17-.44c.11-.16.22-.24.32-.24a.43.43,0,0,1,.38.17,1.37,1.37,0,0,1,.11.66,14.17,14.17,0,0,1-.31,2.15,4.59,4.59,0,0,0-.1.68c0,.05,0,.08,0,.08A6.11,6.11,0,0,0,76.35,22a7.65,7.65,0,0,1,1.13-1.76,1.41,1.41,0,0,1,1.06-.51.89.89,0,0,1,.76.42,3.72,3.72,0,0,1,.43,1.54A8.48,8.48,0,0,0,80,23.25a.4.4,0,0,0,.37.31,1.1,1.1,0,0,0,.4-.11.11.11,0,0,1,.06,0c.15,0,.22.09.22.26a.69.69,0,0,1-.3.48,1.13,1.13,0,0,1-.74.26.77.77,0,0,1-.67-.35A4.93,4.93,0,0,1,79,22.21C78.85,21.2,78.65,20.7,78.34,20.7Z",
                    "fill": "#010101"
                  },
                  {
                    "d": "M82.82,23.52a4.23,4.23,0,0,0,.1.88.44.44,0,0,1,0,.15.35.35,0,0,1-.17.24.53.53,0,0,1-.36.15c-.33,0-.5-.31-.5-.92a18.13,18.13,0,0,1,.39-3,7.74,7.74,0,0,0,.14-.88,1.22,1.22,0,0,1,.12-.56.36.36,0,0,1,.33-.22.66.66,0,0,1,.42.12.38.38,0,0,1,.15.28,1.51,1.51,0,0,1-.07.41,18.42,18.42,0,0,0-.48,1.95A9.4,9.4,0,0,0,82.82,23.52Zm.67-5.76c-.07,0-.13-.08-.16-.24a1.38,1.38,0,0,1-.06-.16,1.57,1.57,0,0,1-.14-.58.58.58,0,0,1,.24-.42.84.84,0,0,1,.55-.21.68.68,0,0,1,.33.11c.13.08.19.15.19.23a2.21,2.21,0,0,1-.13.58.8.8,0,0,1-.4.54A1,1,0,0,1,83.49,17.76Z",
                    "fill": "#010101"
                  },
                  {
                    "d": "M86.29,25a1.55,1.55,0,0,1-1.19-.45,1.72,1.72,0,0,1-.41-1.24,5,5,0,0,1,1.06-2.84c.72-1,1.38-1.49,2-1.49a.86.86,0,0,1,.72.45,1.7,1.7,0,0,1,.3,1,1,1,0,0,1-.13.52c-.09.14-.18.22-.27.22s-.34-.2-.42-.61-.23-.65-.4-.65c-.36,0-.78.43-1.27,1.28a4.51,4.51,0,0,0-.73,2.15c0,.58.33.88,1,.88a3.3,3.3,0,0,0,1.79-.72,1.23,1.23,0,0,1,.53-.25c.12,0,.17.07.17.2s-.3.59-.92,1A3.31,3.31,0,0,1,86.29,25Z",
                    "fill": "#010101"
                  },
                  {
                    "d": "M93.71,22.78a6.21,6.21,0,0,1-1.43,1.46,2.35,2.35,0,0,1-1.29.48.89.89,0,0,1-.69-.33,1.3,1.3,0,0,1-.29-.86,4.87,4.87,0,0,1,1.22-2.92A3.24,3.24,0,0,1,93.64,19a.69.69,0,0,1,.64.49.22.22,0,0,0,.21.17c.28,0,.41.11.41.32a2.09,2.09,0,0,1-.05.44,14.74,14.74,0,0,0-.28,2.14c0,.84.16,1.33.48,1.5a.36.36,0,0,1,.23.3c0,.11-.08.22-.23.33a.76.76,0,0,1-.42.16c-.27,0-.49-.18-.66-.55A3.76,3.76,0,0,1,93.71,22.78Zm-.31-2.9c-.46,0-1,.43-1.59,1.28a4,4,0,0,0-.9,2.11q0,.6.39.6c.38,0,.91-.38,1.58-1.15a3.31,3.31,0,0,0,1-2.1C93.88,20.13,93.72,19.88,93.4,19.88Z",
                    "fill": "#010101"
                  },
                  {
                    "d": "M98.24,15.93c.25,0,.37.16.37.48a10.54,10.54,0,0,1-.45,2,14.54,14.54,0,0,0-.43,2.2,14.82,14.82,0,0,0-.16,1.9,13.7,13.7,0,0,0,.11,1.69c0,.1,0,.18,0,.23a.6.6,0,0,1-.18.44.48.48,0,0,1-.37.19c-.18,0-.31-.11-.38-.34a4.15,4.15,0,0,1-.1-1.1,28.24,28.24,0,0,1,.41-4.28,14.8,14.8,0,0,1,.66-3C97.91,16.07,98.07,15.93,98.24,15.93Z",
                    "fill": "#010101"
                  },
                  {
                    "d": "M23.17,36.74a19.6,19.6,0,0,0-.47,2.6l-.15,1a1,1,0,0,1-.19.41c-.1.13-.2.2-.28.2a.61.61,0,0,1-.37-.16c-.13-.11-.2-.2-.2-.26a3.25,3.25,0,0,1,.13-.79A28.23,28.23,0,0,0,22.58,33V32.6a1.28,1.28,0,0,1,.19-.81.62.62,0,0,1,.48-.26c.08,0,.16.07.24.2a1.16,1.16,0,0,1,.11.55,8.49,8.49,0,0,1-.1,1.21c-.09.6-.14.94-.14,1A8,8,0,0,1,25,32.43a2.48,2.48,0,0,1,1.6-.76,1.13,1.13,0,0,1,.87.39,1.39,1.39,0,0,1,.36,1,4.34,4.34,0,0,1-1.29,3A3.56,3.56,0,0,1,24,37.45a.73.73,0,0,1-.48-.15A1.73,1.73,0,0,1,23.17,36.74Zm3.2-4.15c-.48,0-1.08.45-1.8,1.36a4,4,0,0,0-1.07,2.12.49.49,0,0,0,.21.36.8.8,0,0,0,.54.17A2.56,2.56,0,0,0,26,35.51a3.25,3.25,0,0,0,.95-2.14,1,1,0,0,0-.15-.58A.46.46,0,0,0,26.37,32.59Z",
                    "fill": "#010101"
                  },
                  {
                    "d": "M32.48,35.46a6.15,6.15,0,0,1-1.43,1.45,2.3,2.3,0,0,1-1.29.49.86.86,0,0,1-.69-.34,1.28,1.28,0,0,1-.29-.86A4.94,4.94,0,0,1,30,33.28a3.3,3.3,0,0,1,2.41-1.57.7.7,0,0,1,.65.5.21.21,0,0,0,.21.16c.27,0,.41.11.41.33a3,3,0,0,1-.05.43,13.5,13.5,0,0,0-.28,2.15c0,.83.16,1.33.48,1.49a.37.37,0,0,1,.22.31c0,.11-.07.21-.22.32a.72.72,0,0,1-.43.16c-.26,0-.48-.18-.65-.54A3.82,3.82,0,0,1,32.48,35.46Zm-.31-2.9c-.46,0-1,.42-1.59,1.27a4,4,0,0,0-.9,2.12c0,.39.13.59.39.59s.9-.38,1.57-1.14a3.32,3.32,0,0,0,1-2.11C32.65,32.8,32.49,32.56,32.17,32.56Z",
                    "fill": "#010101"
                  },
                  {
                    "d": "M36.24,35.29a2.07,2.07,0,0,0,.13-.26A9,9,0,0,1,37,33.77a9.37,9.37,0,0,1,.65-.87,4.27,4.27,0,0,1,.65-.64,2.42,2.42,0,0,1,.52-.3,1.34,1.34,0,0,1,.46-.09,1,1,0,0,1,.74.28.87.87,0,0,1,.28.63.46.46,0,0,1-.1.29.39.39,0,0,1-.31.13.55.55,0,0,1-.4-.2.56.56,0,0,0-.38-.19c-.36,0-.85.44-1.49,1.3A6.1,6.1,0,0,0,36.48,37a.91.91,0,0,1-.2.53.61.61,0,0,1-.41.13c-.17,0-.29-.13-.36-.38A4.65,4.65,0,0,1,35.39,36c0-.16,0-.52,0-1.07a13.84,13.84,0,0,1,.12-1.57l.06-.46a2.18,2.18,0,0,1,.09-.55.64.64,0,0,1,.22-.29.55.55,0,0,1,.36-.13.36.36,0,0,1,.29.12.41.41,0,0,1,.09.26,2.13,2.13,0,0,1-.1.56,4,4,0,0,0-.14.57,2.46,2.46,0,0,1-.06.36,10.2,10.2,0,0,0-.1,1.17v.33Z",
                    "fill": "#010101"
                  },
                  {
                    "d": "M44.06,35.46a6.15,6.15,0,0,1-1.43,1.45,2.3,2.3,0,0,1-1.29.49.86.86,0,0,1-.69-.34,1.28,1.28,0,0,1-.29-.86,4.94,4.94,0,0,1,1.21-2.92A3.28,3.28,0,0,1,44,31.71a.7.7,0,0,1,.65.5.21.21,0,0,0,.21.16c.27,0,.41.11.41.33a3,3,0,0,1,0,.43,13.5,13.5,0,0,0-.28,2.15c0,.83.16,1.33.48,1.49a.37.37,0,0,1,.22.31c0,.11-.07.21-.22.32a.72.72,0,0,1-.43.16c-.26,0-.48-.18-.65-.54A3.82,3.82,0,0,1,44.06,35.46Zm-.32-2.9c-.45,0-1,.42-1.58,1.27a4,4,0,0,0-.9,2.12c0,.39.13.59.39.59s.9-.38,1.57-1.14a3.38,3.38,0,0,0,1-2.11C44.23,32.8,44.07,32.56,43.74,32.56Z",
                    "fill": "#010101"
                  },
                  {
                    "d": "M50.68,33.26c-.32,0-1,1-2.06,2.84a8.58,8.58,0,0,1-.62,1,.63.63,0,0,1-.32.15,1.61,1.61,0,0,1-.39.07c-.23,0-.34-.45-.34-1.35a21.22,21.22,0,0,1,.32-2.74,8.27,8.27,0,0,0,.14-1.15c0-.23.1-.34.3-.34.38,0,.57.27.57.82a11,11,0,0,1-.19,1.52c-.15.86-.22,1.38-.23,1.57a7.07,7.07,0,0,0,.94-1.36,10.14,10.14,0,0,1,1.3-1.82,1.26,1.26,0,0,1,.85-.38q.34,0,.54.45a7.45,7.45,0,0,1,.24,2.14,2.3,2.3,0,0,0,.08.63c0,.13.07.2.09.2.17,0,.52-.55,1.06-1.65a5.7,5.7,0,0,1,.84-1.32,1.19,1.19,0,0,1,.91-.46.65.65,0,0,1,.61.43,4.52,4.52,0,0,1,.27,1.28,11.53,11.53,0,0,0,.24,1.57,1.22,1.22,0,0,0,.6.91c.19.09.29.2.29.33s-.08.24-.25.37a.79.79,0,0,1-.45.19.91.91,0,0,1-.74-.51,5.81,5.81,0,0,1-.49-2.18,7.72,7.72,0,0,0-.14-1c0-.19-.11-.29-.21-.29s-.31.14-.51.41a17,17,0,0,0-1,1.68,7.93,7.93,0,0,1-.78,1.31.72.72,0,0,1-.51.33.55.55,0,0,1-.4-.18.78.78,0,0,1-.22-.42,12,12,0,0,1-.1-1.23A5.16,5.16,0,0,0,50.68,33.26Z",
                    "fill": "#010101"
                  },
                  {
                    "d": "M62.05,35.59c0,.35-.31.77-.93,1.27a3.07,3.07,0,0,1-1.92.74,1.64,1.64,0,0,1-1.28-.49,2,2,0,0,1-.45-1.37,4.6,4.6,0,0,1,1-2.8,2.77,2.77,0,0,1,2.18-1.33.85.85,0,0,1,.88.86A2.1,2.1,0,0,1,60.74,34a10.07,10.07,0,0,1-2.09,1.43.41.41,0,0,0-.26.36.87.87,0,0,0,1,.94,3.24,3.24,0,0,0,2.26-1.22c.11-.12.2-.18.26-.18S62.05,35.41,62.05,35.59Zm-3.58-.81c1.46-.86,2.19-1.56,2.19-2.08,0-.21-.1-.31-.28-.31a1.57,1.57,0,0,0-1.07.69A4,4,0,0,0,58.47,34.78Z",
                    "fill": "#010101"
                  },
                  {
                    "d": "M65.23,32.13c.35,0,.69-.06,1-.1S66.8,32,67,32a1,1,0,0,1,.5.08.27.27,0,0,1,.1.25c0,.28-.19.43-.58.45s-1,.08-1.38.13A2.37,2.37,0,0,0,65,33a10.66,10.66,0,0,0-.31,1.22,10,10,0,0,0-.26,1.53,1.27,1.27,0,0,0,.15.75.53.53,0,0,0,.45.19,2.3,2.3,0,0,0,1.23-.66.89.89,0,0,1,.47-.28c.15,0,.22.08.22.24s-.24.57-.71,1a2.27,2.27,0,0,1-1.46.59c-.84,0-1.25-.49-1.25-1.47a8.13,8.13,0,0,1,.25-1.64A10.12,10.12,0,0,0,64,33.13c0-.05,0-.08-.13-.08l-.53.05c-.44,0-.66-.18-.66-.53a.27.27,0,0,1,.3-.3H64a.25.25,0,0,0,.2-.1,2.79,2.79,0,0,0,.24-.65c.1-.38.2-.74.28-1.11s.24-.54.49-.54a.42.42,0,0,1,.34.15.5.5,0,0,1,.12.29,6.65,6.65,0,0,1-.18.74Z",
                    "fill": "#010101"
                  },
                  {
                    "d": "M72.5,35.59c0,.35-.31.77-.93,1.27a3.1,3.1,0,0,1-1.92.74,1.65,1.65,0,0,1-1.29-.49,2,2,0,0,1-.45-1.37,4.55,4.55,0,0,1,1-2.8,2.76,2.76,0,0,1,2.17-1.33.84.84,0,0,1,.88.86A2.1,2.1,0,0,1,71.18,34a10.25,10.25,0,0,1-2.08,1.43.41.41,0,0,0-.27.36.92.92,0,0,0,.25.68.93.93,0,0,0,.73.26,3.24,3.24,0,0,0,2.26-1.22c.12-.12.2-.18.26-.18S72.5,35.41,72.5,35.59Zm-3.59-.81c1.46-.86,2.19-1.56,2.19-2.08,0-.21-.09-.31-.28-.31a1.59,1.59,0,0,0-1.07.69A4,4,0,0,0,68.91,34.78Z",
                    "fill": "#010101"
                  },
                  {
                    "d": "M74.62,35.29l.12-.26a7.94,7.94,0,0,1,.65-1.26A7.79,7.79,0,0,1,76,32.9a4.27,4.27,0,0,1,.65-.64,2.25,2.25,0,0,1,.53-.3,1.24,1.24,0,0,1,.45-.09,1,1,0,0,1,.74.28.84.84,0,0,1,.28.63.46.46,0,0,1-.1.29.39.39,0,0,1-.31.13.53.53,0,0,1-.39-.2.6.6,0,0,0-.39-.19c-.36,0-.85.44-1.49,1.3A6.2,6.2,0,0,0,74.85,37a.85.85,0,0,1-.2.53.6.6,0,0,1-.4.13c-.17,0-.3-.13-.37-.38A4.75,4.75,0,0,1,73.77,36c0-.16,0-.52,0-1.07a11.59,11.59,0,0,1,.13-1.57c0-.07,0-.22,0-.46a2.18,2.18,0,0,1,.09-.55.64.64,0,0,1,.22-.29.55.55,0,0,1,.36-.13.34.34,0,0,1,.29.12.41.41,0,0,1,.09.26,2.13,2.13,0,0,1-.1.56c-.08.28-.12.46-.14.57s0,.24,0,.36A9.3,9.3,0,0,0,74.62,35v.33Z",
                    "fill": "#010101"
                  },
                  {
                    "d": "M81.76,36.16c0-.23-.28-.48-.83-.77a7.78,7.78,0,0,1-1.42-.86.94.94,0,0,1-.36-.72,2,2,0,0,1,1-1.7,3.36,3.36,0,0,1,1.68-.67,1.08,1.08,0,0,1,.61.14.61.61,0,0,1,.19.5.33.33,0,0,1-.14.27.38.38,0,0,1-.21.12.87.87,0,0,1-.23-.08.6.6,0,0,0-.21-.07,3.15,3.15,0,0,0-1,.38c-.52.25-.79.53-.79.85a.67.67,0,0,0,.28.52,4.68,4.68,0,0,0,1,.57,3.94,3.94,0,0,1,.93.6,1,1,0,0,1,.35.75c0,.52-.36.93-1.09,1.23a5.42,5.42,0,0,1-2.08.45c-.55,0-.83-.19-.83-.57a.3.3,0,0,1,.19-.29.85.85,0,0,1,.38-.09l.29.05.28,0A4.34,4.34,0,0,0,81,36.63,1.42,1.42,0,0,0,81.76,36.16Z",
                    "fill": "#010101"
                  },
                  {
                    "d": "M86.34,57.69a7.8,7.8,0,0,1,2.09-2.34,3.82,3.82,0,0,1,2.19-.9,1.15,1.15,0,0,1,.92.45A1.68,1.68,0,0,1,91.92,56a5.18,5.18,0,0,1-1.61,3.61,4.63,4.63,0,0,1-3.38,1.69,1.76,1.76,0,0,1-.9-.24.81.81,0,0,1-.45-.59A.69.69,0,0,0,85.4,60a.77.77,0,0,1-.3-.57,18.74,18.74,0,0,1,.34-2.41l.71-3.71a19.48,19.48,0,0,1,.53-2.3,1.22,1.22,0,0,1,.37-.59.85.85,0,0,1,.51-.15c.31,0,.47.25.47.75a5.8,5.8,0,0,1-.52,2A28,28,0,0,0,86.34,57.69Zm-.16,2.06a1,1,0,0,0,.86.6,2.92,2.92,0,0,0,1.64-.58,5,5,0,0,0,1.5-1.65,3.67,3.67,0,0,0,.64-1.8,1.19,1.19,0,0,0-.13-.56.39.39,0,0,0-.33-.24A3.72,3.72,0,0,0,88,56.93,7.65,7.65,0,0,0,86.18,59.75Z",
                    "fill": "#010101"
                  },
                  {
                    "d": "M97.84,59A8,8,0,0,1,96,60.7a3.34,3.34,0,0,1-1.72.59,1.25,1.25,0,0,1-.91-.4,1.48,1.48,0,0,1-.38-1,5.59,5.59,0,0,1,1.61-3.51,4.37,4.37,0,0,1,3.19-1.88.9.9,0,0,1,.85.59.31.31,0,0,0,.28.2c.37,0,.55.13.55.38a2.48,2.48,0,0,1-.07.53A16,16,0,0,0,99,58.74q0,1.5.63,1.8.3.15.3.36c0,.13-.09.26-.29.39a1,1,0,0,1-.57.2,1,1,0,0,1-.87-.66A4.25,4.25,0,0,1,97.84,59Zm-.41-3.49q-.92,0-2.1,1.53a4.55,4.55,0,0,0-1.2,2.55c0,.47.17.71.52.71s1.2-.46,2.09-1.38a3.88,3.88,0,0,0,1.33-2.53C98.07,55.76,97.85,55.47,97.43,55.47Z",
                    "fill": "#010101"
                  },
                  {
                    "d": "M104.23,55c.47,0,.92-.07,1.33-.12s.75-.06,1-.06a1.69,1.69,0,0,1,.66.08.34.34,0,0,1,.14.31c0,.33-.26.52-.77.54-.67,0-1.27.09-1.83.16a3.73,3.73,0,0,0-.9.16,11.6,11.6,0,0,0-.41,1.48,10.5,10.5,0,0,0-.35,1.83,1.46,1.46,0,0,0,.2.91.75.75,0,0,0,.59.23,3.19,3.19,0,0,0,1.64-.8,1.16,1.16,0,0,1,.62-.33c.19,0,.29.09.29.28s-.31.69-.94,1.16a3.25,3.25,0,0,1-1.94.71c-1.11,0-1.66-.59-1.66-1.77a9.11,9.11,0,0,1,.35-2,10.93,10.93,0,0,0,.33-1.59c0-.07,0-.1-.16-.1l-.71.06c-.59,0-.88-.21-.88-.63,0-.24.14-.36.4-.36h1.41a.32.32,0,0,0,.25-.12,2.82,2.82,0,0,0,.33-.79c.14-.45.26-.89.37-1.33s.33-.65.64-.65a.59.59,0,0,1,.46.18.57.57,0,0,1,.17.35c0,.06-.09.35-.25.89Z",
                    "fill": "#010101"
                  },
                  {
                    "d": "M110.8,55q.7,0,1.32-.12c.41,0,.75-.06,1-.06a1.66,1.66,0,0,1,.65.08.32.32,0,0,1,.14.31c0,.33-.26.52-.77.54s-1.27.09-1.83.16a4,4,0,0,0-.9.16,11.6,11.6,0,0,0-.41,1.48,10.5,10.5,0,0,0-.35,1.83,1.46,1.46,0,0,0,.2.91.75.75,0,0,0,.6.23,3.16,3.16,0,0,0,1.63-.8,1.16,1.16,0,0,1,.62-.33c.2,0,.29.09.29.28s-.31.69-.94,1.16a3.23,3.23,0,0,1-1.94.71q-1.65,0-1.65-1.77a8.94,8.94,0,0,1,.34-2,10.93,10.93,0,0,0,.33-1.59c0-.07,0-.1-.16-.1l-.71.06c-.59,0-.88-.21-.88-.63,0-.24.14-.36.41-.36h1.4a.35.35,0,0,0,.26-.12,2.94,2.94,0,0,0,.32-.79c.14-.45.27-.89.37-1.33s.33-.65.65-.65a.59.59,0,0,1,.62.53,7,7,0,0,1-.25.89Z",
                    "fill": "#010101"
                  },
                  {
                    "d": "M120.43,59.11c0,.42-.41.93-1.24,1.53a4.31,4.31,0,0,1-2.54.89,2.33,2.33,0,0,1-1.7-.59,2.19,2.19,0,0,1-.6-1.64,5.21,5.21,0,0,1,1.32-3.37,3.74,3.74,0,0,1,2.88-1.6,1.18,1.18,0,0,1,.84.3,1,1,0,0,1,.33.73,2.44,2.44,0,0,1-1,1.83,13.22,13.22,0,0,1-2.76,1.72c-.23.11-.35.25-.35.43a1.1,1.1,0,0,0,.33.83,1.38,1.38,0,0,0,1,.31,4.45,4.45,0,0,0,3-1.48.59.59,0,0,1,.34-.2C120.35,58.8,120.43,58.9,120.43,59.11Zm-4.75-1c1.93-1,2.89-1.88,2.89-2.52a.33.33,0,0,0-.36-.37,2.13,2.13,0,0,0-1.42.84A4.6,4.6,0,0,0,115.68,58.15Z",
                    "fill": "#010101"
                  },
                  {
                    "d": "M123.24,58.75c0-.07.1-.18.16-.31a10.55,10.55,0,0,1,.85-1.51,9.6,9.6,0,0,1,.86-1,5.14,5.14,0,0,1,.86-.77,2.92,2.92,0,0,1,.7-.36,1.9,1.9,0,0,1,.61-.1,1.47,1.47,0,0,1,1,.32,1,1,0,0,1,.37.76.51.51,0,0,1-.13.35.53.53,0,0,1-.41.16.75.75,0,0,1-.52-.23.74.74,0,0,0-.52-.23c-.47,0-1.13.52-2,1.56a7.18,7.18,0,0,0-1.53,3.44,1,1,0,0,1-.26.64.83.83,0,0,1-.54.15q-.33,0-.48-.45a5.38,5.38,0,0,1-.15-1.52q0-.3,0-1.29a13.69,13.69,0,0,1,.17-1.89c0-.08,0-.26.06-.55a4,4,0,0,1,.12-.66.81.81,0,0,1,.3-.35.79.79,0,0,1,.48-.16.49.49,0,0,1,.38.14.5.5,0,0,1,.13.32,2.54,2.54,0,0,1-.14.68,4.78,4.78,0,0,0-.19.67,2.24,2.24,0,0,1-.07.44,10.6,10.6,0,0,0-.14,1.41v.39Z",
                    "fill": "#010101"
                  },
                  {
                    "d": "M130.43,59.84a4.36,4.36,0,0,0,.14,1.06.67.67,0,0,1,0,.18c0,.08-.08.17-.23.29a.76.76,0,0,1-.48.18c-.44,0-.66-.37-.66-1.1a19.28,19.28,0,0,1,.52-3.61,8,8,0,0,0,.18-1.06,1.38,1.38,0,0,1,.15-.67.52.52,0,0,1,.45-.28.92.92,0,0,1,.55.16.43.43,0,0,1,.2.33,1.77,1.77,0,0,1-.09.49,19.93,19.93,0,0,0-.64,2.35A10.17,10.17,0,0,0,130.43,59.84Zm.89-6.93c-.09,0-.17-.09-.22-.28s0-.12-.07-.19a1.64,1.64,0,0,1-.19-.7.69.69,0,0,1,.33-.5,1.07,1.07,0,0,1,.72-.26.93.93,0,0,1,.44.14c.17.09.25.18.25.27a2.62,2.62,0,0,1-.17.69,1,1,0,0,1-.53.66A1.39,1.39,0,0,1,131.32,52.91Z",
                    "fill": "#010101"
                  },
                  {
                    "d": "M139,59.11c0,.42-.41.93-1.24,1.53a4.31,4.31,0,0,1-2.54.89,2.33,2.33,0,0,1-1.7-.59,2.19,2.19,0,0,1-.6-1.64,5.21,5.21,0,0,1,1.32-3.37,3.74,3.74,0,0,1,2.89-1.6,1.16,1.16,0,0,1,.83.3,1,1,0,0,1,.33.73,2.46,2.46,0,0,1-1,1.83,13.32,13.32,0,0,1-2.77,1.72c-.23.11-.35.25-.35.43a1.1,1.1,0,0,0,.33.83,1.39,1.39,0,0,0,1,.31,4.45,4.45,0,0,0,3-1.48.59.59,0,0,1,.34-.2C139,58.8,139,58.9,139,59.11Zm-4.75-1c1.93-1,2.9-1.88,2.9-2.52a.33.33,0,0,0-.37-.37,2.13,2.13,0,0,0-1.42.84A4.6,4.6,0,0,0,134.27,58.15Z",
                    "fill": "#010101"
                  },
                  {
                    "d": "M143.89,59.79c0-.26-.37-.57-1.1-.91a10.78,10.78,0,0,1-1.88-1,1.09,1.09,0,0,1-.48-.86,2.38,2.38,0,0,1,1.36-2,4.71,4.71,0,0,1,2.23-.81,1.51,1.51,0,0,1,.8.17.71.71,0,0,1,.25.61.43.43,0,0,1-.18.33.54.54,0,0,1-.29.13.94.94,0,0,1-.29-.09,1,1,0,0,0-.29-.09,4.7,4.7,0,0,0-1.39.45c-.69.31-1,.65-1,1a.79.79,0,0,0,.37.63,7.74,7.74,0,0,0,1.32.69,5.2,5.2,0,0,1,1.24.71,1.18,1.18,0,0,1,.46.9c0,.63-.48,1.13-1.44,1.48a7.9,7.9,0,0,1-2.76.54c-.74,0-1.11-.23-1.11-.68a.38.38,0,0,1,.25-.35,1.34,1.34,0,0,1,.51-.11l.39.06a2.17,2.17,0,0,0,.37.06,6.08,6.08,0,0,0,1.62-.23A1.77,1.77,0,0,0,143.89,59.79Z",
                    "fill": "#010101"
                  },
                  {
                    "d": "M117.43,69.09a2.46,2.46,0,0,0,.07.57s0,.07,0,.1,0,.09-.11.15a.37.37,0,0,1-.23.1c-.22,0-.32-.2-.32-.59a11.07,11.07,0,0,1,.25-1.92,4.57,4.57,0,0,0,.09-.57.73.73,0,0,1,.07-.35.23.23,0,0,1,.22-.15.4.4,0,0,1,.26.08.21.21,0,0,1,.1.18,1.05,1.05,0,0,1,0,.26c-.16.58-.26,1-.3,1.25A5.75,5.75,0,0,0,117.43,69.09Zm.43-3.68s-.08,0-.11-.15l0-.11a1,1,0,0,1-.09-.37.38.38,0,0,1,.15-.27.56.56,0,0,1,.35-.14.42.42,0,0,1,.22.08c.08,0,.12.1.12.14a1.55,1.55,0,0,1-.08.37.6.6,0,0,1-.26.36A.69.69,0,0,1,117.86,65.41Z",
                    "fill": "#010101"
                  },
                  {
                    "d": "M121,67.29a.57.57,0,0,0-.38.22,6.11,6.11,0,0,0-.61,1,7.78,7.78,0,0,1-.71,1.2.5.5,0,0,1-.27.14c-.26,0-.39-.12-.39-.38a3.54,3.54,0,0,1,0-.45,10.86,10.86,0,0,0,.19-2.1.5.5,0,0,1,.1-.28q.1-.15.21-.15a.27.27,0,0,1,.24.1.85.85,0,0,1,.07.43,9.26,9.26,0,0,1-.19,1.37,2.67,2.67,0,0,0-.07.44s0,0,0,0a4,4,0,0,0,.45-.79,5.38,5.38,0,0,1,.73-1.13.93.93,0,0,1,.68-.32.58.58,0,0,1,.49.27,2.49,2.49,0,0,1,.27,1,7.16,7.16,0,0,0,.16,1,.26.26,0,0,0,.24.2.63.63,0,0,0,.26-.07l0,0c.09,0,.14.06.14.17a.43.43,0,0,1-.19.31.71.71,0,0,1-.47.16.5.5,0,0,1-.44-.22,3.33,3.33,0,0,1-.24-1.19C121.33,67.61,121.2,67.29,121,67.29Z",
                    "fill": "#010101"
                  },
                  {
                    "d": "M124.9,69.07c0-.14-.18-.3-.53-.49a5,5,0,0,1-.91-.55.58.58,0,0,1-.23-.46,1.28,1.28,0,0,1,.65-1.09,2.13,2.13,0,0,1,1.08-.43.66.66,0,0,1,.39.09.38.38,0,0,1,.12.32.28.28,0,0,1-.23.25l-.14,0a.47.47,0,0,0-.14,0,2.27,2.27,0,0,0-.67.25c-.33.16-.5.34-.5.54a.45.45,0,0,0,.18.34,2.75,2.75,0,0,0,.64.36,2.32,2.32,0,0,1,.59.39.61.61,0,0,1,.23.47c0,.34-.24.6-.7.79a3.55,3.55,0,0,1-1.33.29q-.54,0-.54-.36a.2.2,0,0,1,.12-.19.54.54,0,0,1,.25-.06l.18,0a.65.65,0,0,0,.18,0,2.86,2.86,0,0,0,.79-.12A.91.91,0,0,0,124.9,69.07Z",
                    "fill": "#010101"
                  },
                  {
                    "d": "M127.45,66.5l.64-.07.5,0c.16,0,.27,0,.31,0a.17.17,0,0,1,.07.16c0,.18-.12.27-.37.29l-.89.08a1.82,1.82,0,0,0-.43.09,5.37,5.37,0,0,0-.2.78,6.49,6.49,0,0,0-.17,1,.78.78,0,0,0,.1.48.34.34,0,0,0,.28.13,1.47,1.47,0,0,0,.79-.43.55.55,0,0,1,.3-.18c.1,0,.15,0,.15.16s-.16.36-.46.61a1.49,1.49,0,0,1-.94.38c-.53,0-.8-.31-.8-.94A5.21,5.21,0,0,1,126.5,68a5.86,5.86,0,0,0,.16-.86s0,0-.08,0l-.34,0q-.42,0-.42-.33c0-.13.06-.2.19-.2h.68a.14.14,0,0,0,.12-.06,1.4,1.4,0,0,0,.16-.42c.07-.24.13-.47.18-.71s.16-.34.31-.34a.28.28,0,0,1,.22.09.34.34,0,0,1,.08.19,4.19,4.19,0,0,1-.12.47Z",
                    "fill": "#010101"
                  },
                  {
                    "d": "M129.94,68.52a.91.91,0,0,0,.08-.17,5.88,5.88,0,0,1,.42-.81,5.34,5.34,0,0,1,.41-.56,3,3,0,0,1,.41-.4,1.85,1.85,0,0,1,.34-.2,1,1,0,0,1,.3,0,.65.65,0,0,1,.46.17.53.53,0,0,1,.19.41.24.24,0,0,1-.07.18.22.22,0,0,1-.19.09.33.33,0,0,1-.26-.13.35.35,0,0,0-.25-.12c-.23,0-.54.28-.95.83a4.05,4.05,0,0,0-.74,1.84.58.58,0,0,1-.12.34.42.42,0,0,1-.26.08q-.17,0-.24-.24a3.09,3.09,0,0,1-.07-.81c0-.11,0-.34,0-.69a8,8,0,0,1,.07-1s0-.14,0-.3a1.05,1.05,0,0,1,.06-.35.41.41,0,0,1,.14-.19.4.4,0,0,1,.23-.08.21.21,0,0,1,.18.07.29.29,0,0,1,.06.17,1.48,1.48,0,0,1-.06.36q-.07.27-.09.36a2,2,0,0,1,0,.24,6.65,6.65,0,0,0-.06.75v.21Z",
                    "fill": "#010101"
                  },
                  {
                    "d": "M135.12,68.39a4.49,4.49,0,0,1-.87,1.1,1.26,1.26,0,0,1-.82.39.61.61,0,0,1-.44-.25,1.16,1.16,0,0,1-.23-.79,5.81,5.81,0,0,1,.21-1.27,4.53,4.53,0,0,0,.17-1,.33.33,0,0,1,.3-.2.31.31,0,0,1,.23.1.34.34,0,0,1,.08.2,2.19,2.19,0,0,1-.16.66,4.11,4.11,0,0,0-.31,1.42c0,.37.08.55.25.55s.49-.19.82-.55a4.42,4.42,0,0,0,.84-1.52,2.2,2.2,0,0,1,.23-.5.29.29,0,0,1,.24-.12c.15,0,.22.1.22.29a1.48,1.48,0,0,1-.06.25,5.21,5.21,0,0,0-.2,1.36,1.36,1.36,0,0,0,.26,1c.08.09.13.15.13.2s0,.12-.14.17a.52.52,0,0,1-.24.08c-.15,0-.28-.12-.37-.35a2.65,2.65,0,0,1-.14-1v-.22Z",
                    "fill": "#010101"
                  },
                  {
                    "d": "M139.41,67.22c-.21,0-.65.61-1.32,1.81a6.44,6.44,0,0,1-.4.67.41.41,0,0,1-.2.1.85.85,0,0,1-.25,0c-.15,0-.22-.29-.22-.86a13,13,0,0,1,.21-1.76,6.17,6.17,0,0,0,.08-.73c0-.15.07-.22.2-.22s.36.17.36.53a7.65,7.65,0,0,1-.12,1c-.09.55-.14.88-.14,1a5.29,5.29,0,0,0,.6-.87,6.54,6.54,0,0,1,.82-1.16.81.81,0,0,1,.55-.25c.15,0,.26.1.35.29a5,5,0,0,1,.15,1.37,1.3,1.3,0,0,0,0,.4c0,.09.05.14.06.14s.33-.36.68-1.06a3.48,3.48,0,0,1,.54-.85.78.78,0,0,1,.58-.29.4.4,0,0,1,.39.27,2.76,2.76,0,0,1,.17.82,8.93,8.93,0,0,0,.16,1,.77.77,0,0,0,.38.58c.12.06.19.13.19.21s-.06.15-.16.24a.5.5,0,0,1-.29.12.56.56,0,0,1-.47-.33A3.58,3.58,0,0,1,142,68a5.23,5.23,0,0,0-.09-.61c0-.12-.07-.18-.13-.18s-.21.09-.33.26a10.45,10.45,0,0,0-.61,1.08,6.21,6.21,0,0,1-.5.84.48.48,0,0,1-.33.21.35.35,0,0,1-.26-.12.54.54,0,0,1-.14-.27c0-.11,0-.37-.06-.79A3.54,3.54,0,0,0,139.41,67.22Z",
                    "fill": "#010101"
                  },
                  {
                    "d": "M146.69,68.71c0,.22-.2.49-.59.81a2,2,0,0,1-1.23.48,1.08,1.08,0,0,1-.83-.32,1.25,1.25,0,0,1-.28-.87,3,3,0,0,1,.63-1.8,1.77,1.77,0,0,1,1.4-.85.52.52,0,0,1,.4.16.53.53,0,0,1,.16.39,1.34,1.34,0,0,1-.5,1,6.52,6.52,0,0,1-1.33.92.27.27,0,0,0-.18.23.64.64,0,0,0,.16.44.63.63,0,0,0,.47.17,2.09,2.09,0,0,0,1.45-.79.31.31,0,0,1,.17-.11C146.66,68.54,146.69,68.6,146.69,68.71Zm-2.29-.52c.93-.55,1.4-1,1.4-1.33,0-.14-.06-.2-.18-.2a1.06,1.06,0,0,0-.69.44A2.59,2.59,0,0,0,144.4,68.19Z",
                    "fill": "#010101"
                  },
                  {
                    "d": "M149.63,67.29a.53.53,0,0,0-.37.22,5.34,5.34,0,0,0-.62,1,7,7,0,0,1-.71,1.2.5.5,0,0,1-.27.14c-.26,0-.39-.12-.39-.38a2.53,2.53,0,0,1,.06-.45,11.73,11.73,0,0,0,.18-2.1.5.5,0,0,1,.1-.28c.08-.1.14-.15.21-.15a.27.27,0,0,1,.24.1.83.83,0,0,1,.08.43,9.81,9.81,0,0,1-.2,1.37,2.67,2.67,0,0,0-.07.44s0,0,0,0a4.25,4.25,0,0,0,.46-.79,5,5,0,0,1,.72-1.13,1,1,0,0,1,.68-.32.58.58,0,0,1,.49.27,2.49,2.49,0,0,1,.27,1,5.49,5.49,0,0,0,.17,1c.05.13.13.2.23.2a.6.6,0,0,0,.26-.07l0,0c.1,0,.14.06.14.17a.43.43,0,0,1-.19.31.71.71,0,0,1-.47.16.51.51,0,0,1-.44-.22,3.33,3.33,0,0,1-.24-1.19C150,67.61,149.83,67.29,149.63,67.29Z",
                    "fill": "#010101"
                  },
                  {
                    "d": "M153.21,66.5l.64-.07.5,0c.16,0,.27,0,.31,0a.17.17,0,0,1,.07.16c0,.18-.12.27-.37.29l-.88.08a1.83,1.83,0,0,0-.44.09,5.37,5.37,0,0,0-.2.78,6.49,6.49,0,0,0-.17,1,.78.78,0,0,0,.1.48.35.35,0,0,0,.29.13,1.54,1.54,0,0,0,.79-.43c.13-.12.22-.18.3-.18s.14,0,.14.16-.15.36-.46.61a1.47,1.47,0,0,1-.94.38c-.53,0-.8-.31-.8-.94a5.21,5.21,0,0,1,.17-1.05,5.86,5.86,0,0,0,.16-.86s0,0-.08,0l-.34,0q-.42,0-.42-.33c0-.13.06-.2.19-.2h.68a.14.14,0,0,0,.12-.06,1.4,1.4,0,0,0,.16-.42c.07-.24.13-.47.18-.71s.16-.34.31-.34a.27.27,0,0,1,.22.09.34.34,0,0,1,.08.19,4.19,4.19,0,0,1-.12.47Z",
                    "fill": "#010101"
                  },
                  {
                    "d": "M159.09,66.5l.64-.07.49,0c.17,0,.28,0,.32,0a.19.19,0,0,1,.07.16c0,.18-.13.27-.38.29l-.88.08a1.68,1.68,0,0,0-.43.09,5.37,5.37,0,0,0-.2.78,6.49,6.49,0,0,0-.17,1,.87.87,0,0,0,.09.48.36.36,0,0,0,.29.13,1.51,1.51,0,0,0,.79-.43.55.55,0,0,1,.3-.18c.1,0,.14,0,.14.16s-.15.36-.45.61a1.49,1.49,0,0,1-.94.38c-.53,0-.8-.31-.8-.94a5.21,5.21,0,0,1,.17-1.05,7.86,7.86,0,0,0,.16-.86s0,0-.08,0l-.35,0q-.42,0-.42-.33a.18.18,0,0,1,.2-.2h.68a.17.17,0,0,0,.12-.06,1.4,1.4,0,0,0,.16-.42l.18-.71c.05-.23.15-.34.31-.34a.28.28,0,0,1,.22.09.34.34,0,0,1,.08.19,4.19,4.19,0,0,1-.12.47Z",
                    "fill": "#010101"
                  },
                  {
                    "d": "M163.74,68.71q0,.33-.6.81a1.91,1.91,0,0,1-1.23.48,1.08,1.08,0,0,1-.82-.32,1.25,1.25,0,0,1-.29-.87,3,3,0,0,1,.64-1.8,1.77,1.77,0,0,1,1.4-.85.52.52,0,0,1,.4.16.57.57,0,0,1,.16.39,1.34,1.34,0,0,1-.5,1,6.34,6.34,0,0,1-1.34.92.27.27,0,0,0-.17.23.6.6,0,0,0,.16.44.63.63,0,0,0,.47.17,2.09,2.09,0,0,0,1.45-.79.31.31,0,0,1,.17-.11C163.71,68.54,163.74,68.6,163.74,68.71Zm-2.3-.52c.94-.55,1.41-1,1.41-1.33,0-.14-.06-.2-.18-.2s-.43.15-.69.44A2.72,2.72,0,0,0,161.44,68.19Z",
                    "fill": "#010101"
                  },
                  {
                    "d": "M166.92,67.22c-.2,0-.64.61-1.31,1.81a6.44,6.44,0,0,1-.4.67.41.41,0,0,1-.2.1.91.91,0,0,1-.25,0c-.15,0-.22-.29-.22-.86a14.31,14.31,0,0,1,.2-1.76,4.92,4.92,0,0,0,.09-.73c0-.15.07-.22.2-.22s.36.17.36.53a7.65,7.65,0,0,1-.12,1c-.1.55-.14.88-.15,1a4.61,4.61,0,0,0,.61-.87,6,6,0,0,1,.82-1.16.79.79,0,0,1,.55-.25c.14,0,.26.1.34.29a4.48,4.48,0,0,1,.16,1.37,1.3,1.3,0,0,0,.05.4c0,.09,0,.14.06.14s.33-.36.67-1.06a4.2,4.2,0,0,1,.54-.85.8.8,0,0,1,.59-.29.4.4,0,0,1,.39.27,2.76,2.76,0,0,1,.17.82,5.93,5.93,0,0,0,.16,1,.75.75,0,0,0,.38.58q.18.09.18.21c0,.08,0,.15-.15.24a.53.53,0,0,1-.29.12.59.59,0,0,1-.48-.33,3.63,3.63,0,0,1-.31-1.4,5.23,5.23,0,0,0-.09-.61c0-.12-.07-.18-.14-.18s-.2.09-.32.26a12.07,12.07,0,0,0-.62,1.08,5.29,5.29,0,0,1-.5.84.45.45,0,0,1-.33.21.35.35,0,0,1-.25-.12.54.54,0,0,1-.14-.27c0-.11,0-.37-.06-.79A3.19,3.19,0,0,0,166.92,67.22Z",
                    "fill": "#010101"
                  },
                  {
                    "d": "M172,69.45a12.16,12.16,0,0,0-.3,1.66l-.1.63a.55.55,0,0,1-.12.26c-.06.09-.12.13-.18.13a.36.36,0,0,1-.23-.1c-.09-.07-.13-.13-.13-.17a2.39,2.39,0,0,1,.08-.5,18.31,18.31,0,0,0,.6-4.29v-.28a.81.81,0,0,1,.13-.52.39.39,0,0,1,.3-.16c.05,0,.1,0,.15.13a.68.68,0,0,1,.07.35,6,6,0,0,1-.06.77q-.09.58-.09.66a5.61,5.61,0,0,1,1-1.34,1.63,1.63,0,0,1,1-.48.72.72,0,0,1,.56.25.9.9,0,0,1,.23.62,2.81,2.81,0,0,1-.83,2,2.29,2.29,0,0,1-1.6.87.43.43,0,0,1-.31-.1A1,1,0,0,1,172,69.45Zm2-2.66c-.31,0-.69.29-1.15.87a2.55,2.55,0,0,0-.69,1.36.34.34,0,0,0,.14.23.53.53,0,0,0,.34.11,1.62,1.62,0,0,0,1.09-.7,2.08,2.08,0,0,0,.61-1.37.56.56,0,0,0-.1-.37A.27.27,0,0,0,174.07,66.79Z",
                    "fill": "#010101"
                  },
                  {
                    "d": "M178.58,68.71c0,.22-.2.49-.59.81a2,2,0,0,1-1.23.48,1,1,0,0,1-.82-.32,1.21,1.21,0,0,1-.29-.87,3,3,0,0,1,.63-1.8,1.77,1.77,0,0,1,1.4-.85.52.52,0,0,1,.4.16.53.53,0,0,1,.16.39,1.34,1.34,0,0,1-.5,1,6.52,6.52,0,0,1-1.33.92.27.27,0,0,0-.18.23.64.64,0,0,0,.16.44.63.63,0,0,0,.47.17,2.07,2.07,0,0,0,1.45-.79.31.31,0,0,1,.17-.11C178.55,68.54,178.58,68.6,178.58,68.71Zm-2.29-.52c.93-.55,1.4-1,1.4-1.33,0-.14-.06-.2-.18-.2a1.06,1.06,0,0,0-.69.44A2.59,2.59,0,0,0,176.29,68.19Z",
                    "fill": "#010101"
                  },
                  {
                    "d": "M179.94,68.52l.08-.17a7.44,7.44,0,0,1,.41-.81c.13-.19.27-.38.42-.56a3,3,0,0,1,.41-.4,1.57,1.57,0,0,1,.34-.2,1,1,0,0,1,.29,0,.68.68,0,0,1,.47.17.55.55,0,0,1,.18.41.28.28,0,0,1-.06.18.23.23,0,0,1-.2.09.31.31,0,0,1-.25-.13.35.35,0,0,0-.25-.12c-.23,0-.55.28-.95.83a3.94,3.94,0,0,0-.74,1.84.52.52,0,0,1-.13.34.4.4,0,0,1-.26.08c-.11,0-.18-.08-.23-.24a3.09,3.09,0,0,1-.07-.81c0-.11,0-.34,0-.69a7.76,7.76,0,0,1,.08-1,2.57,2.57,0,0,0,0-.3,2.15,2.15,0,0,1,.06-.35.49.49,0,0,1,.14-.19.43.43,0,0,1,.24-.08.21.21,0,0,1,.18.07.29.29,0,0,1,.06.17,1.48,1.48,0,0,1-.06.36,1.47,1.47,0,0,0-.09.36,2,2,0,0,1,0,.24c0,.09,0,.34-.07.75v.21Z",
                    "fill": "#010101"
                  },
                  {
                    "d": "M184.94,68.63a4,4,0,0,1-.91.93,1.56,1.56,0,0,1-.83.31.54.54,0,0,1-.44-.22.81.81,0,0,1-.18-.55,3.11,3.11,0,0,1,.77-1.87,2.08,2.08,0,0,1,1.55-1,.44.44,0,0,1,.41.31c0,.07.07.11.13.11s.27.07.27.21a1.23,1.23,0,0,1,0,.28,9.74,9.74,0,0,0-.17,1.37q0,.8.3,1a.22.22,0,0,1,.14.19.26.26,0,0,1-.14.21.43.43,0,0,1-.27.1c-.17,0-.31-.11-.42-.35A2.35,2.35,0,0,1,184.94,68.63Zm-.2-1.86c-.29,0-.63.27-1,.81a2.55,2.55,0,0,0-.58,1.36c0,.25.09.38.25.38s.58-.25,1-.73a2.13,2.13,0,0,0,.64-1.35C185.05,66.92,185,66.77,184.74,66.77Z",
                    "fill": "#010101"
                  },
                  {
                    "d": "M188,66.5l.64-.07.5,0a.57.57,0,0,1,.32,0,.18.18,0,0,1,.06.16c0,.18-.12.27-.37.29l-.88.08a1.83,1.83,0,0,0-.44.09,5.37,5.37,0,0,0-.2.78,6.49,6.49,0,0,0-.17,1,.85.85,0,0,0,.1.48.35.35,0,0,0,.29.13,1.51,1.51,0,0,0,.79-.43.55.55,0,0,1,.3-.18c.09,0,.14,0,.14.16s-.15.36-.46.61a1.47,1.47,0,0,1-.93.38c-.54,0-.8-.31-.8-.94a5,5,0,0,1,.16-1.05,5.86,5.86,0,0,0,.16-.86s0,0-.08,0l-.34,0q-.42,0-.42-.33c0-.13.06-.2.19-.2h.68a.18.18,0,0,0,.13-.06,2,2,0,0,0,.15-.42c.07-.24.13-.47.18-.71s.16-.34.31-.34a.27.27,0,0,1,.22.09.28.28,0,0,1,.08.19,4.19,4.19,0,0,1-.12.47Z",
                    "fill": "#010101"
                  },
                  {
                    "d": "M192.19,68.39a4.49,4.49,0,0,1-.87,1.1,1.26,1.26,0,0,1-.82.39.61.61,0,0,1-.44-.25,1.16,1.16,0,0,1-.23-.79,5.81,5.81,0,0,1,.21-1.27,4.53,4.53,0,0,0,.17-1,.34.34,0,0,1,.31-.2.3.3,0,0,1,.22.1.34.34,0,0,1,.08.2,1.92,1.92,0,0,1-.16.66,4.11,4.11,0,0,0-.31,1.42c0,.37.08.55.25.55s.49-.19.82-.55a4.6,4.6,0,0,0,.85-1.52,1.91,1.91,0,0,1,.22-.5.29.29,0,0,1,.24-.12c.15,0,.22.1.22.29a1.48,1.48,0,0,1-.06.25,5.21,5.21,0,0,0-.2,1.36,1.36,1.36,0,0,0,.26,1c.08.09.13.15.13.2s-.05.12-.14.17a.49.49,0,0,1-.24.08c-.15,0-.28-.12-.37-.35a2.65,2.65,0,0,1-.14-1v-.22Z",
                    "fill": "#010101"
                  },
                  {
                    "d": "M194.65,68.52l.08-.17a7.44,7.44,0,0,1,.41-.81c.13-.19.27-.38.42-.56a3,3,0,0,1,.41-.4,1.57,1.57,0,0,1,.34-.2,1,1,0,0,1,.29,0,.68.68,0,0,1,.47.17.55.55,0,0,1,.18.41.28.28,0,0,1-.06.18.23.23,0,0,1-.2.09.31.31,0,0,1-.25-.13.35.35,0,0,0-.25-.12c-.23,0-.55.28-1,.83a3.94,3.94,0,0,0-.74,1.84.52.52,0,0,1-.13.34.4.4,0,0,1-.26.08c-.11,0-.18-.08-.23-.24a3.09,3.09,0,0,1-.07-.81c0-.11,0-.34,0-.69a7.76,7.76,0,0,1,.08-1,2.57,2.57,0,0,0,0-.3,2.15,2.15,0,0,1,.06-.35.49.49,0,0,1,.14-.19.43.43,0,0,1,.24-.08.21.21,0,0,1,.18.07.29.29,0,0,1,.06.17,1.48,1.48,0,0,1-.06.36,1.47,1.47,0,0,0-.09.36,2,2,0,0,1,0,.24c0,.09,0,.34-.07.75v.21Z",
                    "fill": "#010101"
                  },
                  {
                    "d": "M200.29,68.71q0,.33-.6.81a2,2,0,0,1-1.23.48,1.06,1.06,0,0,1-.82-.32,1.25,1.25,0,0,1-.29-.87A3,3,0,0,1,198,67a1.76,1.76,0,0,1,1.39-.85.54.54,0,0,1,.41.16.56.56,0,0,1,.15.39,1.33,1.33,0,0,1-.49,1,6.61,6.61,0,0,1-1.34.92.27.27,0,0,0-.17.23.6.6,0,0,0,.16.44.61.61,0,0,0,.47.17,2.11,2.11,0,0,0,1.45-.79.34.34,0,0,1,.16-.11C200.25,68.54,200.29,68.6,200.29,68.71Zm-2.3-.52c.94-.55,1.4-1,1.4-1.33,0-.14-.06-.2-.17-.2a1,1,0,0,0-.69.44A2.72,2.72,0,0,0,198,68.19Z",
                    "fill": "#010101"
                  },
                  {
                    "d": "M86.23,79.8a4.31,4.31,0,0,0,.11.89,1,1,0,0,1,0,.15c0,.07-.06.15-.17.24a.53.53,0,0,1-.36.15c-.34,0-.5-.31-.5-.92a18.22,18.22,0,0,1,.39-3,6.78,6.78,0,0,0,.13-.88,1.22,1.22,0,0,1,.12-.56.37.37,0,0,1,.34-.23.65.65,0,0,1,.41.13.35.35,0,0,1,.16.28,2.05,2.05,0,0,1-.07.41c-.26.91-.42,1.56-.49,2A9.49,9.49,0,0,0,86.23,79.8ZM86.91,74c-.07,0-.13-.08-.17-.23a1.42,1.42,0,0,0,0-.16,1.47,1.47,0,0,1-.14-.59.62.62,0,0,1,.24-.42.84.84,0,0,1,.55-.21.68.68,0,0,1,.33.11c.13.08.19.16.19.23a2.13,2.13,0,0,1-.13.58.88.88,0,0,1-.4.55A1.12,1.12,0,0,1,86.91,74Z",
                    "fill": "#010101"
                  },
                  {
                    "d": "M91.82,77a.84.84,0,0,0-.58.35,8.89,8.89,0,0,0-1,1.58,10.64,10.64,0,0,1-1.11,1.87.71.71,0,0,1-.42.22.53.53,0,0,1-.61-.59,3.9,3.9,0,0,1,.09-.7,18.32,18.32,0,0,0,.28-3.29.82.82,0,0,1,.17-.44c.11-.16.22-.24.32-.24a.43.43,0,0,1,.38.17,1.37,1.37,0,0,1,.11.66,14.17,14.17,0,0,1-.31,2.15,4.65,4.65,0,0,0-.1.69s0,.08,0,.08a6,6,0,0,0,.72-1.24A8.26,8.26,0,0,1,91,76.49,1.43,1.43,0,0,1,92,76a.89.89,0,0,1,.76.43,3.64,3.64,0,0,1,.42,1.54,9.07,9.07,0,0,0,.27,1.59.4.4,0,0,0,.37.32,1,1,0,0,0,.4-.12l.06,0c.15,0,.22.09.22.26a.69.69,0,0,1-.3.48,1.11,1.11,0,0,1-.74.26.79.79,0,0,1-.68-.35,5.14,5.14,0,0,1-.38-1.86C92.34,77.48,92.13,77,91.82,77Z",
                    "fill": "#010101"
                  },
                  {
                    "d": "M97.92,79.77c0-.23-.27-.48-.82-.77a6.94,6.94,0,0,1-1.42-.86.92.92,0,0,1-.37-.72,2,2,0,0,1,1-1.7A3.3,3.3,0,0,1,98,75a1.08,1.08,0,0,1,.61.14.59.59,0,0,1,.19.5.37.37,0,0,1-.14.28.42.42,0,0,1-.21.11.6.6,0,0,1-.23-.08,1.18,1.18,0,0,0-.21-.07,3.42,3.42,0,0,0-1,.38c-.53.25-.79.54-.79.85a.67.67,0,0,0,.28.53,4.86,4.86,0,0,0,1,.57,3.94,3.94,0,0,1,.93.6,1,1,0,0,1,.35.75c0,.52-.36.94-1.09,1.24a5.64,5.64,0,0,1-2.08.44q-.84,0-.84-.57a.31.31,0,0,1,.19-.29.85.85,0,0,1,.38-.09l.29,0a1.39,1.39,0,0,0,.28.06,4.37,4.37,0,0,0,1.23-.2A1.26,1.26,0,0,0,97.92,79.77Z",
                    "fill": "#010101"
                  },
                  {
                    "d": "M101.92,75.74l1-.1a6,6,0,0,1,.78,0,1,1,0,0,1,.49.07.28.28,0,0,1,.11.25c0,.28-.2.43-.59.46s-1,.07-1.38.13a2.59,2.59,0,0,0-.68.13,12.15,12.15,0,0,0-.31,1.23,8.86,8.86,0,0,0-.26,1.53,1.33,1.33,0,0,0,.15.76.56.56,0,0,0,.45.19,2.34,2.34,0,0,0,1.23-.67.86.86,0,0,1,.47-.27c.15,0,.22.08.22.23s-.24.57-.71,1a2.33,2.33,0,0,1-1.47.59c-.83,0-1.25-.49-1.25-1.47a8.29,8.29,0,0,1,.26-1.65,9.34,9.34,0,0,0,.25-1.34s0-.07-.12-.07l-.54,0c-.44,0-.66-.17-.66-.52a.27.27,0,0,1,.3-.3h1.07a.26.26,0,0,0,.19-.1,2.29,2.29,0,0,0,.24-.66c.11-.38.21-.75.29-1.11s.24-.54.48-.54a.43.43,0,0,1,.35.15.5.5,0,0,1,.12.29,6.65,6.65,0,0,1-.18.74Z",
                    "fill": "#010101"
                  },
                  {
                    "d": "M105.82,78.9a2.07,2.07,0,0,0,.13-.26,9,9,0,0,1,.64-1.26,8,8,0,0,1,.65-.88,3.73,3.73,0,0,1,.65-.63,2,2,0,0,1,.53-.31,1.54,1.54,0,0,1,.46-.08,1,1,0,0,1,.73.27.85.85,0,0,1,.29.63.44.44,0,0,1-.11.29.34.34,0,0,1-.3.13.53.53,0,0,1-.4-.19.54.54,0,0,0-.39-.19c-.36,0-.85.43-1.49,1.3a6.26,6.26,0,0,0-1.16,2.87.86.86,0,0,1-.19.53.58.58,0,0,1-.41.13c-.17,0-.29-.12-.37-.38A5.22,5.22,0,0,1,105,79.6c0-.16,0-.52,0-1.07s.07-1.17.13-1.57c0-.07,0-.22,0-.46a2.92,2.92,0,0,1,.09-.56.72.72,0,0,1,.22-.29.6.6,0,0,1,.37-.13.32.32,0,0,1,.28.12.39.39,0,0,1,.1.26,2.13,2.13,0,0,1-.1.57A3.94,3.94,0,0,0,106,77a2.58,2.58,0,0,1-.06.37,10.2,10.2,0,0,0-.1,1.17v.33Z",
                    "fill": "#010101"
                  },
                  {
                    "d": "M113.92,78.7a7.05,7.05,0,0,1-1.35,1.72,2,2,0,0,1-1.29.61,1,1,0,0,1-.7-.39,1.86,1.86,0,0,1-.35-1.23,8.92,8.92,0,0,1,.33-2,7.73,7.73,0,0,0,.27-1.55.49.49,0,0,1,.47-.31.44.44,0,0,1,.35.15.55.55,0,0,1,.13.32,3.24,3.24,0,0,1-.26,1,6.6,6.6,0,0,0-.48,2.23c0,.56.13.85.4.85s.75-.29,1.27-.86A7.08,7.08,0,0,0,114,76.9a4,4,0,0,1,.35-.79.46.46,0,0,1,.37-.18c.24,0,.36.15.36.46a3.08,3.08,0,0,1-.1.38,8,8,0,0,0-.31,2.14,2.15,2.15,0,0,0,.4,1.57.51.51,0,0,1,.2.31c0,.09-.07.18-.21.26a.76.76,0,0,1-.38.12c-.24,0-.43-.18-.58-.54a4.34,4.34,0,0,1-.22-1.59V78.7Z",
                    "fill": "#010101"
                  },
                  {
                    "d": "M120.63,76.86c-.32,0-1,1-2.06,2.85a7.71,7.71,0,0,1-.62,1,.72.72,0,0,1-.32.16,1.69,1.69,0,0,1-.39.06c-.23,0-.35-.45-.35-1.35a20.28,20.28,0,0,1,.33-2.75,7.7,7.7,0,0,0,.13-1.15c0-.23.11-.34.31-.34.38,0,.57.28.57.83a11,11,0,0,1-.19,1.52,13.51,13.51,0,0,0-.22,1.57,8.15,8.15,0,0,0,.94-1.36,9.4,9.4,0,0,1,1.29-1.82,1.25,1.25,0,0,1,.86-.39q.33,0,.54.45a7.54,7.54,0,0,1,.24,2.15,2.37,2.37,0,0,0,.07.63c0,.13.08.2.1.2s.52-.55,1.06-1.65a6.16,6.16,0,0,1,.84-1.33,1.23,1.23,0,0,1,.91-.45.63.63,0,0,1,.61.43,4.39,4.39,0,0,1,.28,1.28A11.53,11.53,0,0,0,125.8,79a1.22,1.22,0,0,0,.6.91c.19.1.29.2.29.33s-.08.24-.25.37a.75.75,0,0,1-.45.19.9.9,0,0,1-.74-.5,5.75,5.75,0,0,1-.49-2.2c-.05-.45-.1-.77-.14-1s-.12-.28-.22-.28-.31.14-.51.41a17,17,0,0,0-1,1.68,8.66,8.66,0,0,1-.78,1.32.72.72,0,0,1-.52.33.53.53,0,0,1-.39-.18A.86.86,0,0,1,121,80q0-.25-.09-1.23A5.13,5.13,0,0,0,120.63,76.86Z",
                    "fill": "#010101"
                  },
                  {
                    "d": "M132,79.2c0,.35-.31.78-.93,1.27a3,3,0,0,1-1.92.75,1.66,1.66,0,0,1-1.29-.5,1.93,1.93,0,0,1-.45-1.37,4.6,4.6,0,0,1,1-2.81,2.76,2.76,0,0,1,2.18-1.33.85.85,0,0,1,.88.86,2.12,2.12,0,0,1-.78,1.53A10.35,10.35,0,0,1,128.63,79a.41.41,0,0,0-.27.36.93.93,0,0,0,.25.69,1,1,0,0,0,.73.26,3.23,3.23,0,0,0,2.27-1.23c.11-.12.2-.17.26-.17S132,79,132,79.2Zm-3.59-.81c1.46-.86,2.19-1.56,2.19-2.09,0-.21-.09-.31-.27-.31a1.59,1.59,0,0,0-1.08.7A3.94,3.94,0,0,0,128.44,78.39Z",
                    "fill": "#010101"
                  },
                  {
                    "d": "M136.64,77a.84.84,0,0,0-.59.35,8.89,8.89,0,0,0-1,1.58A10.64,10.64,0,0,1,134,80.78a.71.71,0,0,1-.42.22.53.53,0,0,1-.61-.59,3.9,3.9,0,0,1,.09-.7,18.32,18.32,0,0,0,.28-3.29.82.82,0,0,1,.17-.44c.11-.16.22-.24.32-.24a.43.43,0,0,1,.38.17,1.25,1.25,0,0,1,.11.66,14.17,14.17,0,0,1-.31,2.15,4.65,4.65,0,0,0-.1.69s0,.08,0,.08a6,6,0,0,0,.72-1.24,8.26,8.26,0,0,1,1.13-1.76,1.44,1.44,0,0,1,1.07-.52.89.89,0,0,1,.76.43,3.77,3.77,0,0,1,.43,1.54,8.48,8.48,0,0,0,.26,1.59.4.4,0,0,0,.37.32,1,1,0,0,0,.4-.12l.06,0c.15,0,.22.09.22.26a.69.69,0,0,1-.3.48,1.11,1.11,0,0,1-.74.26.79.79,0,0,1-.68-.35,5.14,5.14,0,0,1-.38-1.86C137.15,77.48,136.94,77,136.64,77Z",
                    "fill": "#010101"
                  },
                  {
                    "d": "M142.24,75.74l1-.1a6,6,0,0,1,.78,0,1,1,0,0,1,.49.07.28.28,0,0,1,.11.25c0,.28-.2.43-.59.46s-1,.07-1.38.13a2.47,2.47,0,0,0-.68.13,9.56,9.56,0,0,0-.31,1.23,8.86,8.86,0,0,0-.26,1.53,1.33,1.33,0,0,0,.15.76.56.56,0,0,0,.45.19,2.34,2.34,0,0,0,1.23-.67.86.86,0,0,1,.47-.27c.15,0,.22.08.22.23s-.24.57-.71,1a2.33,2.33,0,0,1-1.47.59c-.83,0-1.25-.49-1.25-1.47a8.29,8.29,0,0,1,.26-1.65,9.34,9.34,0,0,0,.25-1.34s0-.07-.12-.07l-.54,0c-.44,0-.66-.17-.66-.52a.27.27,0,0,1,.3-.3h1.07a.26.26,0,0,0,.19-.1,2.29,2.29,0,0,0,.24-.66c.11-.38.21-.75.29-1.11s.24-.54.48-.54a.43.43,0,0,1,.35.15.5.5,0,0,1,.12.29,6.65,6.65,0,0,1-.18.74Z",
                    "fill": "#010101"
                  },
                  {
                    "d": "M151.43,75.74l1-.1a6,6,0,0,1,.77,0,1.06,1.06,0,0,1,.5.07.28.28,0,0,1,.1.25c0,.28-.19.43-.58.46s-1,.07-1.38.13a2.47,2.47,0,0,0-.68.13,9.56,9.56,0,0,0-.31,1.23,9.29,9.29,0,0,0-.27,1.53,1.33,1.33,0,0,0,.15.76.56.56,0,0,0,.45.19,2.33,2.33,0,0,0,1.24-.67.86.86,0,0,1,.47-.27c.15,0,.22.08.22.23s-.24.57-.72,1a2.28,2.28,0,0,1-1.46.59c-.84,0-1.25-.49-1.25-1.47a7.6,7.6,0,0,1,.26-1.65,11.21,11.21,0,0,0,.25-1.34s0-.07-.13-.07l-.53,0c-.44,0-.66-.17-.66-.52a.27.27,0,0,1,.3-.3h1.07a.28.28,0,0,0,.19-.1,3.2,3.2,0,0,0,.24-.66c.11-.38.2-.75.28-1.11s.25-.54.49-.54a.44.44,0,0,1,.35.15.5.5,0,0,1,.12.29,5.64,5.64,0,0,1-.19.74Z",
                    "fill": "#010101"
                  },
                  {
                    "d": "M158.11,79.13a9,9,0,0,1-1.67,1.2,2.68,2.68,0,0,1-1.1.37.9.9,0,0,1-.79-.42,1.85,1.85,0,0,1-.27-1,7.45,7.45,0,0,1,.33-2,5.81,5.81,0,0,1,.48-1.4.58.58,0,0,1,.5-.22.27.27,0,0,1,.24.18.79.79,0,0,1,.09.38.73.73,0,0,1-.12.34,6.09,6.09,0,0,0-.29.54s-.07.24-.2.62a3.61,3.61,0,0,0-.19,1.07,2.62,2.62,0,0,0,.09.55c.06.25.18.37.35.37a1.77,1.77,0,0,0,.7-.17,4.13,4.13,0,0,0,.94-.57,4.09,4.09,0,0,0,.71-.63,1.5,1.5,0,0,0,.25-.56,8,8,0,0,0,.11-1.34c0-.69.19-1,.5-1a.39.39,0,0,1,.36.14,1.26,1.26,0,0,1,.08.57c0,.22,0,.51,0,.85s-.06.74-.08.92a18.51,18.51,0,0,1-.36,2.85,7.82,7.82,0,0,1-.87,2.4,1.76,1.76,0,0,1-1.57,1,3.2,3.2,0,0,1-1.8-.53c-.52-.36-.79-.66-.79-.9a.84.84,0,0,1,.08-.34c.06-.11.12-.16.21-.16s.08,0,.13.1a2.36,2.36,0,0,0,2.13,1q.75,0,1.26-1.32a7.72,7.72,0,0,0,.56-2.47C158.08,79.42,158.09,79.28,158.11,79.13Z",
                    "fill": "#010101"
                  },
                  {
                    "d": "M161.55,80.35a20.94,20.94,0,0,0-.48,2.61l-.15,1a.85.85,0,0,1-.19.41c-.1.14-.19.2-.28.2a.61.61,0,0,1-.37-.16c-.13-.11-.2-.19-.2-.26a3.12,3.12,0,0,1,.13-.78,28.51,28.51,0,0,0,1-6.71V76.2a1.21,1.21,0,0,1,.2-.81.58.58,0,0,1,.47-.25c.09,0,.16.06.24.19a1.05,1.05,0,0,1,.11.55,8.51,8.51,0,0,1-.1,1.22c-.09.6-.13.94-.14,1a8.05,8.05,0,0,1,1.63-2.1,2.55,2.55,0,0,1,1.61-.75,1.15,1.15,0,0,1,.88.39,1.37,1.37,0,0,1,.36,1,4.38,4.38,0,0,1-1.29,3.06,3.65,3.65,0,0,1-2.52,1.37.74.74,0,0,1-.49-.15A1.93,1.93,0,0,1,161.55,80.35Zm3.21-4.16c-.49,0-1.09.46-1.81,1.37a4,4,0,0,0-1.07,2.12.49.49,0,0,0,.21.36.8.8,0,0,0,.54.18,2.58,2.58,0,0,0,1.7-1.1,3.27,3.27,0,0,0,1-2.14,1,1,0,0,0-.15-.58A.47.47,0,0,0,164.76,76.19Z",
                    "fill": "#010101"
                  },
                  {
                    "d": "M171.82,79.2c0,.35-.32.78-.94,1.27a3,3,0,0,1-1.92.75,1.66,1.66,0,0,1-1.29-.5,1.93,1.93,0,0,1-.45-1.37,4.6,4.6,0,0,1,1-2.81,2.76,2.76,0,0,1,2.18-1.33.85.85,0,0,1,.88.86,2.12,2.12,0,0,1-.78,1.53A10.35,10.35,0,0,1,168.41,79a.41.41,0,0,0-.27.36.93.93,0,0,0,.25.69,1,1,0,0,0,.73.26,3.23,3.23,0,0,0,2.27-1.23c.12-.12.2-.17.26-.17S171.82,79,171.82,79.2Zm-3.6-.81c1.46-.86,2.19-1.56,2.19-2.09,0-.21-.09-.31-.27-.31a1.59,1.59,0,0,0-1.08.7A4.18,4.18,0,0,0,168.22,78.39Z",
                    "fill": "#010101"
                  }
                ]
              }
            ]
          }
        }
      }
    }
  }