<svg id="Layer_1" data-name="Layer 1" xmlns="http://www.w3.org/2000/svg" viewBox="0 0 271.81 282.43"><g id="misc">

<path id="ghost" d="M13.26,0S5.83,17.38,14.6,21.24s33,12.18,30.54,22.08,4.93,28.35-5.83,26.54S5.09,62.08,4.79,69,3.4,98.2,6.42,96.39s16.11-7.23,18.44-4.07S23,114.84,27.9,117s14.34-.11,14.34-.11,2.94,28.4-.88,29.82-18.53,1.86-19.5,5.46-.95,36.33.84,39.3,15.46,4.85,13.23,13.12-10,26.69-14.88,31.19S9.6,246.46,9.6,249.34s3.88,8.53,3.88,8.53S-1.7,278.7.16,281.82s41.7-6.68,49.09-7.09,30.39,4.51,45.19-.31,40.06-18,32.16-19-29-17.7-29.08-26.22,37.63-8.57,37.63-8.57,137.69,5.22,136.65-1.07-15.26-28.44-36.64-30.68S87.08,182.79,80.8,185.22s.88-40.07-6.41-42.09-11.91-19.74-5.73-21,14.88,9.86,18,5.15S94,93.72,89,92.8,60.86,81.09,60.1,75.69s-4.43-44.24-2.26-47.24,12.48-15.14,7.33-18.18S13.26,0,13.26,0Z" fill="#fff"/>

</g></svg>