id	text
title	Data Scientist
permafrost	NSERC PermafrostNet
perm-data	Bringing together Permafrost Data from across Canada
perm-data-model	Modelling the future takes lots of data!
global-init	Global Initiatives
permafrost-dataviz	Permafrost Net Data Visualisation Portal
erddap	Raw Data from ERDDAP server
started	Started in 2019
where	Where does the data come from?
partners	Data Partners
nwt	Northwest Territories Geological Survey
yukon	Yukon Geological Survey
survey	Geological Survey of Canada
researchers	Researchers
what-data	What data is collected about Permafrost?
site-obs	Site Observations
obs-diff	It can be difficult to connect obervations between data-sets
obs-vary	Observations can vary from person to person
soil-samples	Soil Samples
boreholes	Boreholes
bore-core	A drill with a hollow core is used to recover intact samples from a borehole
bore-cont	Looking for soil and water content at different depth intervals
pits	Pits
sensors	Sensors
sensor-place	Sensors are placed at different depths
sensor-left	Left in the ground to measure temperature over time