id	points	polygons	circle
shannon-shannon-acad-journals	[[0,6.09],[17.82,0],[309.02,0],[309.02,23.49],[228.93,34.4],[239.28,147.65],[285.36,159.55],[285.36,173.26],[247.31,206.32],[199.6,231.7],[10.54,215.65],[14.74,168.22],[77.43,158.37],[69.93,47.67],[21.5,43.4],[0,6.09]]	[[[0,6.09],[17.82,0],[309.02,0],[309.02,23.49],[228.93,34.4],[69.93,47.67],[21.5,43.4],[0,6.09]],[[239.28,147.65],[285.36,159.55],[285.36,173.26],[247.31,206.32],[199.6,231.7],[10.54,215.65],[14.74,168.22],[77.43,158.37]],[[228.93,34.4],[239.28,147.65],[77.43,158.37],[69.93,47.67]]]	[[156.48507217967204,103.264508203981],184.20223359059125]
shannon-shannon-face	[[45.53,0],[132.79,8.74],[132.79,38.64],[160.04,68.72],[157.6,93.08],[138.41,93.88],[149.58,161.28],[99.98,175.42],[15.15,165.39],[0,125.32],[20.55,75.46],[9.79,76.68],[8.49,52.9],[45.1,26.25],[45.53,0]]	[[[20.55,75.46],[9.79,76.68],[8.49,52.9],[45.1,26.25]],[[138.41,93.88],[149.58,161.28],[99.98,175.42],[15.15,165.39],[0,125.32],[20.55,75.46],[45.1,26.25]],[[45.53,0],[132.79,38.64],[160.04,68.72],[157.6,93.08],[138.41,93.88],[45.1,26.25],[45.53,0]],[[45.53,0],[132.79,8.74],[132.79,38.64]]]	[[80.17563756053836,91.72526940709693],98.25897451876591]
shannon-shannon-film	[[0,12.11],[52.78,0],[105.78,3.6],[224.04,42.19],[264.4,66.89],[267.5,92.91],[234.93,115.13],[236.5,146.48],[69.8,152.73],[68.36,88.74],[61.17,66.89],[15.26,75.31],[0,12.11]]	[[[0,12.11],[52.78,0],[61.17,66.89],[15.26,75.31],[0,12.11]],[[234.93,115.13],[236.5,146.48],[69.8,152.73],[68.36,88.74]],[[52.78,0],[105.78,3.6],[224.04,42.19],[264.4,66.89],[267.5,92.91],[234.93,115.13],[68.36,88.74],[61.17,66.89]]]	[[133.75,52.51],139.7183685132345]
shannon-shannon-industry-reports	[[0,32.3],[48.1,12.62],[83.92,11.6],[101.15,0],[164.12,12.42],[157.37,43.96],[129.69,55.49],[133.88,77.5],[69.58,105.05],[29.32,102.71],[0,32.3]]	[[[83.92,11.6],[101.15,0],[164.12,12.42],[157.37,43.96],[129.69,55.49],[133.88,77.5]],[[0,32.3],[48.1,12.62],[83.92,11.6],[133.88,77.5],[69.58,105.05],[29.32,102.71],[0,32.3]]]	[[63.03835732247122,7.279415406679839],101.21227245916717]
shannon-shannon-ivory	[[5.19,60.82],[84.52,37.12],[94.91,3.45],[121.24,0],[129.1,67.52],[129.1,106.15],[89.95,110.7],[73.75,113.01],[54.21,109.51],[0,109.34],[5.19,60.82]]	[[[5.19,60.82],[54.21,109.51],[0,109.34],[5.19,60.82]],[[84.52,37.12],[94.91,3.45],[121.24,0],[129.1,67.52],[129.1,106.15],[89.95,110.7]],[[5.19,60.82],[84.52,37.12],[89.95,110.7],[73.75,113.01],[54.21,109.51]]]	[[97.16841834161158,95.19615913423257],98.19241191378585]
shannon-shannon-journals	[[0,22.18],[67.86,0],[103.9,87.41],[137.71,94.1],[146.51,114.3],[34.76,153.89],[29.49,136.3],[33.61,116.66],[0,22.18]]	[[[103.9,87.41],[137.71,94.1],[146.51,114.3],[34.76,153.89],[29.49,136.3],[33.61,116.66]],[[0,22.18],[67.86,0],[103.9,87.41],[33.61,116.66],[0,22.18]]]	[[69.44888917692985,74.29333583030838],86.82711546096638]
shannon-shannon-letters	[[0.99,12.35],[85.26,0],[86.44,27.14],[101.86,27.14],[103.62,50.37],[164.44,62.02],[144.36,114.61],[96.97,112.51],[80.97,129.33],[2.64,129.33],[3.47,104.84],[32.68,99.61],[0,62.02],[0.99,12.35]]	[[[96.97,112.51],[80.97,129.33],[2.64,129.33],[3.47,104.84],[32.68,99.61]],[[86.44,27.14],[101.86,27.14],[103.62,50.37],[164.44,62.02],[144.36,114.61]],[[0.99,12.35],[86.44,27.14],[144.36,114.61],[96.97,112.51],[32.68,99.61],[0,62.02],[0.99,12.35]],[[0.99,12.35],[85.26,0],[86.44,27.14]]]	[[72.79197891703281,69.8388714719345],91.98094650262428]
shannon-shannon-maps	[[40.37,13.09],[208.01,0],[178.4,166.19],[142.88,173.3],[132.89,166.65],[99.88,164.66],[99.38,142.73],[0,126.78],[40.37,13.09]]	[[[40.37,13.09],[132.89,166.65],[99.88,164.66],[99.38,142.73],[0,126.78],[40.37,13.09]],[[40.37,13.09],[208.01,0],[178.4,166.19],[142.88,173.3],[132.89,166.65]]]	[[106.61160050847397,67.66669168455333],121.90330833482537]
shannon-shannon-paintings	[[0,1.88],[180.82,0],[196.88,124],[173.22,132.49],[172.77,152.58],[70.55,161.19],[66.15,142.12],[11.61,146.81],[0,1.88]]	[[[0,1.88],[180.82,0],[66.15,142.12],[11.61,146.81],[0,1.88]],[[180.82,0],[173.22,132.49],[172.77,152.58],[70.55,161.19],[66.15,142.12]],[[180.82,0],[196.88,124],[173.22,132.49]]]	[[95.8394592420273,67.13255211619446],115.94437246145623]
shannon-shannon-permission	[[0,82.88],[36.8,40.24],[73.39,0],[169.19,24.33],[176.78,37.82],[165.32,76.61],[140.04,130.24],[82.61,126.96],[22.92,104.76],[0,82.88]]	[[[0,82.88],[36.8,40.24],[73.39,0],[169.19,24.33],[176.78,37.82],[165.32,76.61],[140.04,130.24],[82.61,126.96],[22.92,104.76],[0,82.88]]]	[[88.39,60.349999999999994],91.21618825625197]
shannon-shannon-photographs	[[2.71,55.15],[85.73,37.51],[87.97,0],[166.54,1.58],[178.72,121.54],[153.14,124.34],[151.79,170.28],[171.25,182.12],[170.56,205.11],[158.93,216.96],[20.07,196.6],[12.95,182.22],[28.14,143.95],[0,118.51],[2.71,55.15]]	[[[171.25,182.12],[170.56,205.11],[158.93,216.96],[20.07,196.6],[12.95,182.22],[28.14,143.95]],[[151.79,170.28],[171.25,182.12],[28.14,143.95],[0,118.51]],[[2.71,55.15],[85.73,37.51],[151.79,170.28],[0,118.51],[2.71,55.15]],[[85.73,37.51],[87.97,0],[166.54,1.58]],[[85.73,37.51],[166.54,1.58],[178.72,121.54],[153.14,124.34],[151.79,170.28]]]	[[104.10091933259653,107.19828789173118],122.6941788829899]
shannon-shannon-videos	[[0,0],[142.12,1.37],[142.91,77.45],[0,77.45],[0,0]]	[[[0,0],[142.12,1.37],[142.91,77.45],[0,77.45],[0,0]]]	[[71.455,38.725],81.27387433855974]